{
  "system": [
    "(0.527057188813262 + 0.851600444533346*I)*t*x0^16 + (-2.00000000000000)*t*x0^15*x1 - t*x0^14*x1^2 + (-3.00000000000000)*t*x0^13*x1^3 + 25.0000000000000*t*x0^12*x1^4 + t*x0^11*x1^5 + t*x0^10*x1^6 + 2.00000000000000*t*x0^8*x1^8 - t*x0^7*x1^9 + t*x0^6*x1^10 + 3.00000000000000*t*x0^5*x1^11 + (-13.0000000000000)*t*x0^4*x1^12 + t*x0^3*x1^13 + 15.0000000000000*t*x0^2*x1^14 + 6.00000000000000*t*x0^15 + (-0.527057188813262 - 0.851600444533346*I)*x0^16 - t*x0^14*x1 + 2.00000000000000*t*x0^13*x1^2 + t*x0^12*x1^3 - t*x0^11*x1^4 + (-5.00000000000000)*t*x0^10*x1^5 + t*x0^9*x1^6 + t*x0^7*x1^8 + 9.00000000000000*t*x0^5*x1^10 - t*x0^4*x1^11 + 2.00000000000000*t*x0^3*x1^12 + 31.0000000000000*t*x0^2*x1^13 - t*x0*x1^14 + t*x1^15 - t*x0^14 + 3.00000000000000*t*x0^12*x1^2 + (-4.00000000000000)*t*x0^11*x1^3 + t*x0^9*x1^5 + 18.0000000000000*t*x0^8*x1^6 + (-3.00000000000000)*t*x0^7*x1^7 + (-2.00000000000000)*t*x0^5*x1^9 + (-3.00000000000000)*t*x0^4*x1^10 + t*x0^3*x1^11 - t*x0^2*x1^12 + (-3.00000000000000)*t*x1^14 + 4.00000000000000*t*x0^13 - t*x0^12*x1 + 2.00000000000000*t*x0^10*x1^3 - t*x0^9*x1^4 + 5.00000000000000*t*x0^8*x1^5 + 4.00000000000000*t*x0^7*x1^6 - t*x0^6*x1^7 - t*x0^5*x1^8 + 7.00000000000000*t*x0^4*x1^9 + (-10.0000000000000)*t*x0^2*x1^11 + (-2.00000000000000)*t*x0*x1^12 - t*x1^13 + 6.00000000000000*t*x0^12 + (-2.00000000000000)*t*x0^11*x1 + (-2.00000000000000)*t*x0^10*x1^2 + (-4.00000000000000)*t*x0^9*x1^3 + 3.00000000000000*t*x0^7*x1^5 + (-3.00000000000000)*t*x0^6*x1^6 + 5.00000000000000*t*x0^5*x1^7 - t*x0^3*x1^9 + 3.00000000000000*t*x0*x1^11 - t*x1^12 - t*x0^10*x1 + 13.0000000000000*t*x0^9*x1^2 + 2.00000000000000*t*x0^8*x1^3 + 2.00000000000000*t*x0^7*x1^4 + 3.00000000000000*t*x0^6*x1^5 + (-2.00000000000000)*t*x0^5*x1^6 - t*x0^4*x1^7 - t*x0^3*x1^8 + 7.00000000000000*t*x0^10 + t*x0^9*x1 + (-5.00000000000000)*t*x0^8*x1^2 + (-15.0000000000000)*t*x0^7*x1^3 + 4.00000000000000*t*x0^5*x1^5 + t*x0^4*x1^6 + (-2.00000000000000)*t*x0^3*x1^7 + t*x0*x1^9 + (-35.0000000000000)*t*x0^9 + 3.00000000000000*t*x0^8*x1 - t*x0^7*x1^2 - t*x0^6*x1^3 + (-7.00000000000000)*t*x0^3*x1^6 - t*x0*x1^8 - t*x1^9 - t*x0^8 + 4.00000000000000*t*x0^6*x1^2 + t*x0^2*x1^6 + t*x0*x1^7 + t*x0^5*x1^2 + (-6.00000000000000)*t*x0^3*x1^4 + t*x1^7 + t*x0^6 + (-2.00000000000000)*t*x0^5*x1 + 1609.00000000000*t*x0^4*x1^2 - t*x0^3*x1^3 + t*x0^2*x1^4 - t*x0*x1^5 + t*x1^6 + 26.0000000000000*t*x0^3*x1^2 - t*x0^2*x1^3 + (-2.00000000000000)*t*x1^5 + (-11.0000000000000)*t*x0^4 + (-4.00000000000000)*t*x0^3*x1 - t*x0^2*x1^2 + 3.00000000000000*t*x0*x1^3 - t*x0^3 + (-2.00000000000000)*t*x0^2*x1 + (-8.00000000000000)*t*x0*x1^2 + t*x1^3 + (-2.00000000000000)*t*x0^2 + (0.472942811186738 - 0.851600444533346*I)*t + 0.527057188813262 + 0.851600444533346*I",
    "-t*x0^16 - t*x0^15*x1 + 3.00000000000000*t*x0^14*x1^2 + (-4.00000000000000)*t*x0^13*x1^3 + 2.00000000000000*t*x0^12*x1^4 - t*x0^11*x1^5 + 3.00000000000000*t*x0^9*x1^7 - t*x0^8*x1^8 - t*x0^7*x1^9 - t*x0^6*x1^10 + (-3.00000000000000)*t*x0^5*x1^11 + (-3.00000000000000)*t*x0^4*x1^12 + (-2.00000000000000)*t*x0^3*x1^13 - t*x0*x1^15 + (-0.265111695900905 + 0.134123907875234*I)*t*x1^16 + t*x0^15 + t*x0^10*x1^5 - t*x0^9*x1^6 + 3.00000000000000*t*x0^8*x1^7 + (-2.00000000000000)*t*x0^7*x1^8 + 3.00000000000000*t*x0^5*x1^10 + t*x0^4*x1^11 + t*x0^3*x1^12 + t*x0^2*x1^13 - t*x0*x1^14 - t*x1^15 + (0.265111695900905 - 0.134123907875234*I)*x1^16 + 18.0000000000000*t*x0^14 + (-3.00000000000000)*t*x0^13*x1 + (-7.00000000000000)*t*x0^12*x1^2 + t*x0^11*x1^3 + 27.0000000000000*t*x0^10*x1^4 + 2.00000000000000*t*x0^9*x1^5 + t*x0^8*x1^6 + 3.00000000000000*t*x0^7*x1^7 + (-3.00000000000000)*t*x0^6*x1^8 + 2.00000000000000*t*x0^5*x1^9 + 2.00000000000000*t*x0^4*x1^10 + (-826.000000000000)*t*x0^3*x1^11 + (-55.0000000000000)*t*x0^2*x1^12 + (-42.0000000000000)*t*x1^14 + (-2.00000000000000)*t*x0^13 + t*x0^12*x1 - t*x0^11*x1^2 + (-2.00000000000000)*t*x0^10*x1^3 + (-2.00000000000000)*t*x0^9*x1^4 - t*x0^8*x1^5 + t*x0^7*x1^6 + t*x0^6*x1^7 + 20.0000000000000*t*x0^5*x1^8 + 9.00000000000000*t*x0^3*x1^10 + (-4.00000000000000)*t*x1^13 + (-11.0000000000000)*t*x0^12 - t*x0^11*x1 + 2.00000000000000*t*x0^10*x1^2 + t*x0^9*x1^3 - t*x0^8*x1^4 + 19.0000000000000*t*x0^7*x1^5 + 5.00000000000000*t*x0^5*x1^7 + t*x0^4*x1^8 + (-5.00000000000000)*t*x0^3*x1^9 + 4.00000000000000*t*x0^2*x1^10 + 4.00000000000000*t*x0*x1^11 + (-3.00000000000000)*t*x0^11 + t*x0^10*x1 - t*x0^9*x1^2 + t*x0^8*x1^3 + 2.00000000000000*t*x0^7*x1^4 + (-3.00000000000000)*t*x0^6*x1^5 - t*x0^4*x1^7 + t*x0^3*x1^8 - t*x0*x1^10 + 3.00000000000000*t*x1^11 + 2.00000000000000*t*x0^8*x1^2 + (-6.00000000000000)*t*x0^7*x1^3 + (-3.00000000000000)*t*x0^6*x1^4 + (-6.00000000000000)*t*x0^4*x1^6 + t*x0^3*x1^7 + 2.00000000000000*t*x0*x1^9 + (-14.0000000000000)*t*x1^10 + (-3.00000000000000)*t*x0^9 + 5.00000000000000*t*x0^8*x1 + t*x0^7*x1^2 - t*x0^6*x1^3 + 2.00000000000000*t*x0^5*x1^4 - t*x0^4*x1^5 + (-16.0000000000000)*t*x0^3*x1^6 + (-61.0000000000000)*t*x0^2*x1^7 + t*x0*x1^8 + t*x0^8 - t*x0^7*x1 + 2.00000000000000*t*x0^6*x1^2 + t*x0^2*x1^6 + 3.00000000000000*t*x0*x1^7 + 3.00000000000000*t*x1^8 - t*x0^7 + 2.00000000000000*t*x0^5*x1^2 + t*x0^4*x1^3 + t*x0^3*x1^4 - t*x0^2*x1^5 + (-2.00000000000000)*t*x1^7 - t*x0^6 + (-4.00000000000000)*t*x0^5*x1 + (-2.00000000000000)*t*x0^4*x1^2 + t*x0^2*x1^4 + 7.00000000000000*t*x0*x1^5 + (-20.0000000000000)*t*x1^6 + (-2.00000000000000)*t*x0^5 + 2.00000000000000*t*x0^4*x1 - t*x0^2*x1^3 + (-3.00000000000000)*t*x0*x1^4 - t*x1^5 + 4.00000000000000*t*x0^4 + (-4.00000000000000)*t*x0^3*x1 + (-7.00000000000000)*t*x0^2*x1^2 - t*x0*x1^3 + 3.00000000000000*t*x1^4 + (-2.00000000000000)*t*x0^3 + 4.00000000000000*t*x0^2*x1 + (-9.00000000000000)*t*x0*x1^2 - t*x1^3 + t*x0^2 + 3.00000000000000*t*x0*x1 + (-2.00000000000000)*t*x1^2 - t*x0 + 136.000000000000*t*x1 + (0.265111695900905 - 0.134123907875234*I)*t - 0.265111695900905 + 0.134123907875234*I"
  ],
  "variables": [
    "x0",
    "x1"
  ],
  "parameters": [
    "t"
  ],
  "path": [
    [
      "0.0"
    ],
    [
      "1.0"
    ]
  ],
  "fiber": [
    [
      "1.00000000000000",
      "1.00000000000000"
    ],
    [
      "0.923879532511287 + 0.382683432365090*I",
      "1.00000000000000"
    ],
    [
      "0.707106781186548 + 0.707106781186547*I",
      "1.00000000000000"
    ],
    [
      "0.382683432365090 + 0.923879532511287*I",
      "1.00000000000000"
    ],
    [
      "6.12323399573677e-17 + 1.00000000000000*I",
      "1.00000000000000"
    ],
    [
      "-0.382683432365090 + 0.923879532511287*I",
      "1.00000000000000"
    ],
    [
      "-0.707106781186547 + 0.707106781186548*I",
      "1.00000000000000"
    ],
    [
      "-0.923879532511287 + 0.382683432365090*I",
      "1.00000000000000"
    ],
    [
      "-1.00000000000000 + 1.22464679914735e-16*I",
      "1.00000000000000"
    ],
    [
      "-0.923879532511287 - 0.382683432365090*I",
      "1.00000000000000"
    ],
    [
      "-0.707106781186548 - 0.707106781186547*I",
      "1.00000000000000"
    ],
    [
      "-0.382683432365090 - 0.923879532511287*I",
      "1.00000000000000"
    ],
    [
      "-1.83697019872103e-16 - 1.00000000000000*I",
      "1.00000000000000"
    ],
    [
      "0.382683432365090 - 0.923879532511287*I",
      "1.00000000000000"
    ],
    [
      "0.707106781186547 - 0.707106781186548*I",
      "1.00000000000000"
    ],
    [
      "0.923879532511287 - 0.382683432365090*I",
      "1.00000000000000"
    ],
    [
      "1.00000000000000",
      "0.923879532511287 + 0.382683432365090*I"
    ],
    [
      "0.923879532511287 + 0.382683432365090*I",
      "0.923879532511287 + 0.382683432365090*I"
    ],
    [
      "0.707106781186548 + 0.707106781186547*I",
      "0.923879532511287 + 0.382683432365090*I"
    ],
    [
      "0.382683432365090 + 0.923879532511287*I",
      "0.923879532511287 + 0.382683432365090*I"
    ],
    [
      "6.12323399573677e-17 + 1.00000000000000*I",
      "0.923879532511287 + 0.382683432365090*I"
    ],
    [
      "-0.382683432365090 + 0.923879532511287*I",
      "0.923879532511287 + 0.382683432365090*I"
    ],
    [
      "-0.707106781186547 + 0.707106781186548*I",
      "0.923879532511287 + 0.382683432365090*I"
    ],
    [
      "-0.923879532511287 + 0.382683432365090*I",
      "0.923879532511287 + 0.382683432365090*I"
    ],
    [
      "-1.00000000000000 + 1.22464679914735e-16*I",
      "0.923879532511287 + 0.382683432365090*I"
    ],
    [
      "-0.923879532511287 - 0.382683432365090*I",
      "0.923879532511287 + 0.382683432365090*I"
    ],
    [
      "-0.707106781186548 - 0.707106781186547*I",
      "0.923879532511287 + 0.382683432365090*I"
    ],
    [
      "-0.382683432365090 - 0.923879532511287*I",
      "0.923879532511287 + 0.382683432365090*I"
    ],
    [
      "-1.83697019872103e-16 - 1.00000000000000*I",
      "0.923879532511287 + 0.382683432365090*I"
    ],
    [
      "0.382683432365090 - 0.923879532511287*I",
      "0.923879532511287 + 0.382683432365090*I"
    ],
    [
      "0.707106781186547 - 0.707106781186548*I",
      "0.923879532511287 + 0.382683432365090*I"
    ],
    [
      "0.923879532511287 - 0.382683432365090*I",
      "0.923879532511287 + 0.382683432365090*I"
    ],
    [
      "1.00000000000000",
      "0.707106781186548 + 0.707106781186547*I"
    ],
    [
      "0.923879532511287 + 0.382683432365090*I",
      "0.707106781186548 + 0.707106781186547*I"
    ],
    [
      "0.707106781186548 + 0.707106781186547*I",
      "0.707106781186548 + 0.707106781186547*I"
    ],
    [
      "0.382683432365090 + 0.923879532511287*I",
      "0.707106781186548 + 0.707106781186547*I"
    ],
    [
      "6.12323399573677e-17 + 1.00000000000000*I",
      "0.707106781186548 + 0.707106781186547*I"
    ],
    [
      "-0.382683432365090 + 0.923879532511287*I",
      "0.707106781186548 + 0.707106781186547*I"
    ],
    [
      "-0.707106781186547 + 0.707106781186548*I",
      "0.707106781186548 + 0.707106781186547*I"
    ],
    [
      "-0.923879532511287 + 0.382683432365090*I",
      "0.707106781186548 + 0.707106781186547*I"
    ],
    [
      "-1.00000000000000 + 1.22464679914735e-16*I",
      "0.707106781186548 + 0.707106781186547*I"
    ],
    [
      "-0.923879532511287 - 0.382683432365090*I",
      "0.707106781186548 + 0.707106781186547*I"
    ],
    [
      "-0.707106781186548 - 0.707106781186547*I",
      "0.707106781186548 + 0.707106781186547*I"
    ],
    [
      "-0.382683432365090 - 0.923879532511287*I",
      "0.707106781186548 + 0.707106781186547*I"
    ],
    [
      "-1.83697019872103e-16 - 1.00000000000000*I",
      "0.707106781186548 + 0.707106781186547*I"
    ],
    [
      "0.382683432365090 - 0.923879532511287*I",
      "0.707106781186548 + 0.707106781186547*I"
    ],
    [
      "0.707106781186547 - 0.707106781186548*I",
      "0.707106781186548 + 0.707106781186547*I"
    ],
    [
      "0.923879532511287 - 0.382683432365090*I",
      "0.707106781186548 + 0.707106781186547*I"
    ],
    [
      "1.00000000000000",
      "0.382683432365090 + 0.923879532511287*I"
    ],
    [
      "0.923879532511287 + 0.382683432365090*I",
      "0.382683432365090 + 0.923879532511287*I"
    ],
    [
      "0.707106781186548 + 0.707106781186547*I",
      "0.382683432365090 + 0.923879532511287*I"
    ],
    [
      "0.382683432365090 + 0.923879532511287*I",
      "0.382683432365090 + 0.923879532511287*I"
    ],
    [
      "6.12323399573677e-17 + 1.00000000000000*I",
      "0.382683432365090 + 0.923879532511287*I"
    ],
    [
      "-0.382683432365090 + 0.923879532511287*I",
      "0.382683432365090 + 0.923879532511287*I"
    ],
    [
      "-0.707106781186547 + 0.707106781186548*I",
      "0.382683432365090 + 0.923879532511287*I"
    ],
    [
      "-0.923879532511287 + 0.382683432365090*I",
      "0.382683432365090 + 0.923879532511287*I"
    ],
    [
      "-1.00000000000000 + 1.22464679914735e-16*I",
      "0.382683432365090 + 0.923879532511287*I"
    ],
    [
      "-0.923879532511287 - 0.382683432365090*I",
      "0.382683432365090 + 0.923879532511287*I"
    ],
    [
      "-0.707106781186548 - 0.707106781186547*I",
      "0.382683432365090 + 0.923879532511287*I"
    ],
    [
      "-0.382683432365090 - 0.923879532511287*I",
      "0.382683432365090 + 0.923879532511287*I"
    ],
    [
      "-1.83697019872103e-16 - 1.00000000000000*I",
      "0.382683432365090 + 0.923879532511287*I"
    ],
    [
      "0.382683432365090 - 0.923879532511287*I",
      "0.382683432365090 + 0.923879532511287*I"
    ],
    [
      "0.707106781186547 - 0.707106781186548*I",
      "0.382683432365090 + 0.923879532511287*I"
    ],
    [
      "0.923879532511287 - 0.382683432365090*I",
      "0.382683432365090 + 0.923879532511287*I"
    ],
    [
      "1.00000000000000",
      "6.12323399573677e-17 + 1.00000000000000*I"
    ],
    [
      "0.923879532511287 + 0.382683432365090*I",
      "6.12323399573677e-17 + 1.00000000000000*I"
    ],
    [
      "0.707106781186548 + 0.707106781186547*I",
      "6.12323399573677e-17 + 1.00000000000000*I"
    ],
    [
      "0.382683432365090 + 0.923879532511287*I",
      "6.12323399573677e-17 + 1.00000000000000*I"
    ],
    [
      "6.12323399573677e-17 + 1.00000000000000*I",
      "6.12323399573677e-17 + 1.00000000000000*I"
    ],
    [
      "-0.382683432365090 + 0.923879532511287*I",
      "6.12323399573677e-17 + 1.00000000000000*I"
    ],
    [
      "-0.707106781186547 + 0.707106781186548*I",
      "6.12323399573677e-17 + 1.00000000000000*I"
    ],
    [
      "-0.923879532511287 + 0.382683432365090*I",
      "6.12323399573677e-17 + 1.00000000000000*I"
    ],
    [
      "-1.00000000000000 + 1.22464679914735e-16*I",
      "6.12323399573677e-17 + 1.00000000000000*I"
    ],
    [
      "-0.923879532511287 - 0.382683432365090*I",
      "6.12323399573677e-17 + 1.00000000000000*I"
    ],
    [
      "-0.707106781186548 - 0.707106781186547*I",
      "6.12323399573677e-17 + 1.00000000000000*I"
    ],
    [
      "-0.382683432365090 - 0.923879532511287*I",
      "6.12323399573677e-17 + 1.00000000000000*I"
    ],
    [
      "-1.83697019872103e-16 - 1.00000000000000*I",
      "6.12323399573677e-17 + 1.00000000000000*I"
    ],
    [
      "0.382683432365090 - 0.923879532511287*I",
      "6.12323399573677e-17 + 1.00000000000000*I"
    ],
    [
      "0.707106781186547 - 0.707106781186548*I",
      "6.12323399573677e-17 + 1.00000000000000*I"
    ],
    [
      "0.923879532511287 - 0.382683432365090*I",
      "6.12323399573677e-17 + 1.00000000000000*I"
    ],
    [
      "1.00000000000000",
      "-0.382683432365090 + 0.923879532511287*I"
    ],
    [
      "0.923879532511287 + 0.382683432365090*I",
      "-0.382683432365090 + 0.923879532511287*I"
    ],
    [
      "0.707106781186548 + 0.707106781186547*I",
      "-0.382683432365090 + 0.923879532511287*I"
    ],
    [
      "0.382683432365090 + 0.923879532511287*I",
      "-0.382683432365090 + 0.923879532511287*I"
    ],
    [
      "6.12323399573677e-17 + 1.00000000000000*I",
      "-0.382683432365090 + 0.923879532511287*I"
    ],
    [
      "-0.382683432365090 + 0.923879532511287*I",
      "-0.382683432365090 + 0.923879532511287*I"
    ],
    [
      "-0.707106781186547 + 0.707106781186548*I",
      "-0.382683432365090 + 0.923879532511287*I"
    ],
    [
      "-0.923879532511287 + 0.382683432365090*I",
      "-0.382683432365090 + 0.923879532511287*I"
    ],
    [
      "-1.00000000000000 + 1.22464679914735e-16*I",
      "-0.382683432365090 + 0.923879532511287*I"
    ],
    [
      "-0.923879532511287 - 0.382683432365090*I",
      "-0.382683432365090 + 0.923879532511287*I"
    ],
    [
      "-0.707106781186548 - 0.707106781186547*I",
      "-0.382683432365090 + 0.923879532511287*I"
    ],
    [
      "-0.382683432365090 - 0.923879532511287*I",
      "-0.382683432365090 + 0.923879532511287*I"
    ],
    [
      "-1.83697019872103e-16 - 1.00000000000000*I",
      "-0.382683432365090 + 0.923879532511287*I"
    ],
    [
      "0.382683432365090 - 0.923879532511287*I",
      "-0.382683432365090 + 0.923879532511287*I"
    ],
    [
      "0.707106781186547 - 0.707106781186548*I",
      "-0.382683432365090 + 0.923879532511287*I"
    ],
    [
      "0.923879532511287 - 0.382683432365090*I",
      "-0.382683432365090 + 0.923879532511287*I"
    ],
    [
      "1.00000000000000",
      "-0.707106781186547 + 0.707106781186548*I"
    ],
    [
      "0.923879532511287 + 0.382683432365090*I",
      "-0.707106781186547 + 0.707106781186548*I"
    ],
    [
      "0.707106781186548 + 0.707106781186547*I",
      "-0.707106781186547 + 0.707106781186548*I"
    ],
    [
      "0.382683432365090 + 0.923879532511287*I",
      "-0.707106781186547 + 0.707106781186548*I"
    ],
    [
      "6.12323399573677e-17 + 1.00000000000000*I",
      "-0.707106781186547 + 0.707106781186548*I"
    ],
    [
      "-0.382683432365090 + 0.923879532511287*I",
      "-0.707106781186547 + 0.707106781186548*I"
    ],
    [
      "-0.707106781186547 + 0.707106781186548*I",
      "-0.707106781186547 + 0.707106781186548*I"
    ],
    [
      "-0.923879532511287 + 0.382683432365090*I",
      "-0.707106781186547 + 0.707106781186548*I"
    ],
    [
      "-1.00000000000000 + 1.22464679914735e-16*I",
      "-0.707106781186547 + 0.707106781186548*I"
    ],
    [
      "-0.923879532511287 - 0.382683432365090*I",
      "-0.707106781186547 + 0.707106781186548*I"
    ],
    [
      "-0.707106781186548 - 0.707106781186547*I",
      "-0.707106781186547 + 0.707106781186548*I"
    ],
    [
      "-0.382683432365090 - 0.923879532511287*I",
      "-0.707106781186547 + 0.707106781186548*I"
    ],
    [
      "-1.83697019872103e-16 - 1.00000000000000*I",
      "-0.707106781186547 + 0.707106781186548*I"
    ],
    [
      "0.382683432365090 - 0.923879532511287*I",
      "-0.707106781186547 + 0.707106781186548*I"
    ],
    [
      "0.707106781186547 - 0.707106781186548*I",
      "-0.707106781186547 + 0.707106781186548*I"
    ],
    [
      "0.923879532511287 - 0.382683432365090*I",
      "-0.707106781186547 + 0.707106781186548*I"
    ],
    [
      "1.00000000000000",
      "-0.923879532511287 + 0.382683432365090*I"
    ],
    [
      "0.923879532511287 + 0.382683432365090*I",
      "-0.923879532511287 + 0.382683432365090*I"
    ],
    [
      "0.707106781186548 + 0.707106781186547*I",
      "-0.923879532511287 + 0.382683432365090*I"
    ],
    [
      "0.382683432365090 + 0.923879532511287*I",
      "-0.923879532511287 + 0.382683432365090*I"
    ],
    [
      "6.12323399573677e-17 + 1.00000000000000*I",
      "-0.923879532511287 + 0.382683432365090*I"
    ],
    [
      "-0.382683432365090 + 0.923879532511287*I",
      "-0.923879532511287 + 0.382683432365090*I"
    ],
    [
      "-0.707106781186547 + 0.707106781186548*I",
      "-0.923879532511287 + 0.382683432365090*I"
    ],
    [
      "-0.923879532511287 + 0.382683432365090*I",
      "-0.923879532511287 + 0.382683432365090*I"
    ],
    [
      "-1.00000000000000 + 1.22464679914735e-16*I",
      "-0.923879532511287 + 0.382683432365090*I"
    ],
    [
      "-0.923879532511287 - 0.382683432365090*I",
      "-0.923879532511287 + 0.382683432365090*I"
    ],
    [
      "-0.707106781186548 - 0.707106781186547*I",
      "-0.923879532511287 + 0.382683432365090*I"
    ],
    [
      "-0.382683432365090 - 0.923879532511287*I",
      "-0.923879532511287 + 0.382683432365090*I"
    ],
    [
      "-1.83697019872103e-16 - 1.00000000000000*I",
      "-0.923879532511287 + 0.382683432365090*I"
    ],
    [
      "0.382683432365090 - 0.923879532511287*I",
      "-0.923879532511287 + 0.382683432365090*I"
    ],
    [
      "0.707106781186547 - 0.707106781186548*I",
      "-0.923879532511287 + 0.382683432365090*I"
    ],
    [
      "0.923879532511287 - 0.382683432365090*I",
      "-0.923879532511287 + 0.382683432365090*I"
    ],
    [
      "1.00000000000000",
      "-1.00000000000000 + 1.22464679914735e-16*I"
    ],
    [
      "0.923879532511287 + 0.382683432365090*I",
      "-1.00000000000000 + 1.22464679914735e-16*I"
    ],
    [
      "0.707106781186548 + 0.707106781186547*I",
      "-1.00000000000000 + 1.22464679914735e-16*I"
    ],
    [
      "0.382683432365090 + 0.923879532511287*I",
      "-1.00000000000000 + 1.22464679914735e-16*I"
    ],
    [
      "6.12323399573677e-17 + 1.00000000000000*I",
      "-1.00000000000000 + 1.22464679914735e-16*I"
    ],
    [
      "-0.382683432365090 + 0.923879532511287*I",
      "-1.00000000000000 + 1.22464679914735e-16*I"
    ],
    [
      "-0.707106781186547 + 0.707106781186548*I",
      "-1.00000000000000 + 1.22464679914735e-16*I"
    ],
    [
      "-0.923879532511287 + 0.382683432365090*I",
      "-1.00000000000000 + 1.22464679914735e-16*I"
    ],
    [
      "-1.00000000000000 + 1.22464679914735e-16*I",
      "-1.00000000000000 + 1.22464679914735e-16*I"
    ],
    [
      "-0.923879532511287 - 0.382683432365090*I",
      "-1.00000000000000 + 1.22464679914735e-16*I"
    ],
    [
      "-0.707106781186548 - 0.707106781186547*I",
      "-1.00000000000000 + 1.22464679914735e-16*I"
    ],
    [
      "-0.382683432365090 - 0.923879532511287*I",
      "-1.00000000000000 + 1.22464679914735e-16*I"
    ],
    [
      "-1.83697019872103e-16 - 1.00000000000000*I",
      "-1.00000000000000 + 1.22464679914735e-16*I"
    ],
    [
      "0.382683432365090 - 0.923879532511287*I",
      "-1.00000000000000 + 1.22464679914735e-16*I"
    ],
    [
      "0.707106781186547 - 0.707106781186548*I",
      "-1.00000000000000 + 1.22464679914735e-16*I"
    ],
    [
      "0.923879532511287 - 0.382683432365090*I",
      "-1.00000000000000 + 1.22464679914735e-16*I"
    ],
    [
      "1.00000000000000",
      "-0.923879532511287 - 0.382683432365090*I"
    ],
    [
      "0.923879532511287 + 0.382683432365090*I",
      "-0.923879532511287 - 0.382683432365090*I"
    ],
    [
      "0.707106781186548 + 0.707106781186547*I",
      "-0.923879532511287 - 0.382683432365090*I"
    ],
    [
      "0.382683432365090 + 0.923879532511287*I",
      "-0.923879532511287 - 0.382683432365090*I"
    ],
    [
      "6.12323399573677e-17 + 1.00000000000000*I",
      "-0.923879532511287 - 0.382683432365090*I"
    ],
    [
      "-0.382683432365090 + 0.923879532511287*I",
      "-0.923879532511287 - 0.382683432365090*I"
    ],
    [
      "-0.707106781186547 + 0.707106781186548*I",
      "-0.923879532511287 - 0.382683432365090*I"
    ],
    [
      "-0.923879532511287 + 0.382683432365090*I",
      "-0.923879532511287 - 0.382683432365090*I"
    ],
    [
      "-1.00000000000000 + 1.22464679914735e-16*I",
      "-0.923879532511287 - 0.382683432365090*I"
    ],
    [
      "-0.923879532511287 - 0.382683432365090*I",
      "-0.923879532511287 - 0.382683432365090*I"
    ],
    [
      "-0.707106781186548 - 0.707106781186547*I",
      "-0.923879532511287 - 0.382683432365090*I"
    ],
    [
      "-0.382683432365090 - 0.923879532511287*I",
      "-0.923879532511287 - 0.382683432365090*I"
    ],
    [
      "-1.83697019872103e-16 - 1.00000000000000*I",
      "-0.923879532511287 - 0.382683432365090*I"
    ],
    [
      "0.382683432365090 - 0.923879532511287*I",
      "-0.923879532511287 - 0.382683432365090*I"
    ],
    [
      "0.707106781186547 - 0.707106781186548*I",
      "-0.923879532511287 - 0.382683432365090*I"
    ],
    [
      "0.923879532511287 - 0.382683432365090*I",
      "-0.923879532511287 - 0.382683432365090*I"
    ],
    [
      "1.00000000000000",
      "-0.707106781186548 - 0.707106781186547*I"
    ],
    [
      "0.923879532511287 + 0.382683432365090*I",
      "-0.707106781186548 - 0.707106781186547*I"
    ],
    [
      "0.707106781186548 + 0.707106781186547*I",
      "-0.707106781186548 - 0.707106781186547*I"
    ],
    [
      "0.382683432365090 + 0.923879532511287*I",
      "-0.707106781186548 - 0.707106781186547*I"
    ],
    [
      "6.12323399573677e-17 + 1.00000000000000*I",
      "-0.707106781186548 - 0.707106781186547*I"
    ],
    [
      "-0.382683432365090 + 0.923879532511287*I",
      "-0.707106781186548 - 0.707106781186547*I"
    ],
    [
      "-0.707106781186547 + 0.707106781186548*I",
      "-0.707106781186548 - 0.707106781186547*I"
    ],
    [
      "-0.923879532511287 + 0.382683432365090*I",
      "-0.707106781186548 - 0.707106781186547*I"
    ],
    [
      "-1.00000000000000 + 1.22464679914735e-16*I",
      "-0.707106781186548 - 0.707106781186547*I"
    ],
    [
      "-0.923879532511287 - 0.382683432365090*I",
      "-0.707106781186548 - 0.707106781186547*I"
    ],
    [
      "-0.707106781186548 - 0.707106781186547*I",
      "-0.707106781186548 - 0.707106781186547*I"
    ],
    [
      "-0.382683432365090 - 0.923879532511287*I",
      "-0.707106781186548 - 0.707106781186547*I"
    ],
    [
      "-1.83697019872103e-16 - 1.00000000000000*I",
      "-0.707106781186548 - 0.707106781186547*I"
    ],
    [
      "0.382683432365090 - 0.923879532511287*I",
      "-0.707106781186548 - 0.707106781186547*I"
    ],
    [
      "0.707106781186547 - 0.707106781186548*I",
      "-0.707106781186548 - 0.707106781186547*I"
    ],
    [
      "0.923879532511287 - 0.382683432365090*I",
      "-0.707106781186548 - 0.707106781186547*I"
    ],
    [
      "1.00000000000000",
      "-0.382683432365090 - 0.923879532511287*I"
    ],
    [
      "0.923879532511287 + 0.382683432365090*I",
      "-0.382683432365090 - 0.923879532511287*I"
    ],
    [
      "0.707106781186548 + 0.707106781186547*I",
      "-0.382683432365090 - 0.923879532511287*I"
    ],
    [
      "0.382683432365090 + 0.923879532511287*I",
      "-0.382683432365090 - 0.923879532511287*I"
    ],
    [
      "6.12323399573677e-17 + 1.00000000000000*I",
      "-0.382683432365090 - 0.923879532511287*I"
    ],
    [
      "-0.382683432365090 + 0.923879532511287*I",
      "-0.382683432365090 - 0.923879532511287*I"
    ],
    [
      "-0.707106781186547 + 0.707106781186548*I",
      "-0.382683432365090 - 0.923879532511287*I"
    ],
    [
      "-0.923879532511287 + 0.382683432365090*I",
      "-0.382683432365090 - 0.923879532511287*I"
    ],
    [
      "-1.00000000000000 + 1.22464679914735e-16*I",
      "-0.382683432365090 - 0.923879532511287*I"
    ],
    [
      "-0.923879532511287 - 0.382683432365090*I",
      "-0.382683432365090 - 0.923879532511287*I"
    ],
    [
      "-0.707106781186548 - 0.707106781186547*I",
      "-0.382683432365090 - 0.923879532511287*I"
    ],
    [
      "-0.382683432365090 - 0.923879532511287*I",
      "-0.382683432365090 - 0.923879532511287*I"
    ],
    [
      "-1.83697019872103e-16 - 1.00000000000000*I",
      "-0.382683432365090 - 0.923879532511287*I"
    ],
    [
      "0.382683432365090 - 0.923879532511287*I",
      "-0.382683432365090 - 0.923879532511287*I"
    ],
    [
      "0.707106781186547 - 0.707106781186548*I",
      "-0.382683432365090 - 0.923879532511287*I"
    ],
    [
      "0.923879532511287 - 0.382683432365090*I",
      "-0.382683432365090 - 0.923879532511287*I"
    ],
    [
      "1.00000000000000",
      "-1.83697019872103e-16 - 1.00000000000000*I"
    ],
    [
      "0.923879532511287 + 0.382683432365090*I",
      "-1.83697019872103e-16 - 1.00000000000000*I"
    ],
    [
      "0.707106781186548 + 0.707106781186547*I",
      "-1.83697019872103e-16 - 1.00000000000000*I"
    ],
    [
      "0.382683432365090 + 0.923879532511287*I",
      "-1.83697019872103e-16 - 1.00000000000000*I"
    ],
    [
      "6.12323399573677e-17 + 1.00000000000000*I",
      "-1.83697019872103e-16 - 1.00000000000000*I"
    ],
    [
      "-0.382683432365090 + 0.923879532511287*I",
      "-1.83697019872103e-16 - 1.00000000000000*I"
    ],
    [
      "-0.707106781186547 + 0.707106781186548*I",
      "-1.83697019872103e-16 - 1.00000000000000*I"
    ],
    [
      "-0.923879532511287 + 0.382683432365090*I",
      "-1.83697019872103e-16 - 1.00000000000000*I"
    ],
    [
      "-1.00000000000000 + 1.22464679914735e-16*I",
      "-1.83697019872103e-16 - 1.00000000000000*I"
    ],
    [
      "-0.923879532511287 - 0.382683432365090*I",
      "-1.83697019872103e-16 - 1.00000000000000*I"
    ],
    [
      "-0.707106781186548 - 0.707106781186547*I",
      "-1.83697019872103e-16 - 1.00000000000000*I"
    ],
    [
      "-0.382683432365090 - 0.923879532511287*I",
      "-1.83697019872103e-16 - 1.00000000000000*I"
    ],
    [
      "-1.83697019872103e-16 - 1.00000000000000*I",
      "-1.83697019872103e-16 - 1.00000000000000*I"
    ],
    [
      "0.382683432365090 - 0.923879532511287*I",
      "-1.83697019872103e-16 - 1.00000000000000*I"
    ],
    [
      "0.707106781186547 - 0.707106781186548*I",
      "-1.83697019872103e-16 - 1.00000000000000*I"
    ],
    [
      "0.923879532511287 - 0.382683432365090*I",
      "-1.83697019872103e-16 - 1.00000000000000*I"
    ],
    [
      "1.00000000000000",
      "0.382683432365090 - 0.923879532511287*I"
    ],
    [
      "0.923879532511287 + 0.382683432365090*I",
      "0.382683432365090 - 0.923879532511287*I"
    ],
    [
      "0.707106781186548 + 0.707106781186547*I",
      "0.382683432365090 - 0.923879532511287*I"
    ],
    [
      "0.382683432365090 + 0.923879532511287*I",
      "0.382683432365090 - 0.923879532511287*I"
    ],
    [
      "6.12323399573677e-17 + 1.00000000000000*I",
      "0.382683432365090 - 0.923879532511287*I"
    ],
    [
      "-0.382683432365090 + 0.923879532511287*I",
      "0.382683432365090 - 0.923879532511287*I"
    ],
    [
      "-0.707106781186547 + 0.707106781186548*I",
      "0.382683432365090 - 0.923879532511287*I"
    ],
    [
      "-0.923879532511287 + 0.382683432365090*I",
      "0.382683432365090 - 0.923879532511287*I"
    ],
    [
      "-1.00000000000000 + 1.22464679914735e-16*I",
      "0.382683432365090 - 0.923879532511287*I"
    ],
    [
      "-0.923879532511287 - 0.382683432365090*I",
      "0.382683432365090 - 0.923879532511287*I"
    ],
    [
      "-0.707106781186548 - 0.707106781186547*I",
      "0.382683432365090 - 0.923879532511287*I"
    ],
    [
      "-0.382683432365090 - 0.923879532511287*I",
      "0.382683432365090 - 0.923879532511287*I"
    ],
    [
      "-1.83697019872103e-16 - 1.00000000000000*I",
      "0.382683432365090 - 0.923879532511287*I"
    ],
    [
      "0.382683432365090 - 0.923879532511287*I",
      "0.382683432365090 - 0.923879532511287*I"
    ],
    [
      "0.707106781186547 - 0.707106781186548*I",
      "0.382683432365090 - 0.923879532511287*I"
    ],
    [
      "0.923879532511287 - 0.382683432365090*I",
      "0.382683432365090 - 0.923879532511287*I"
    ],
    [
      "1.00000000000000",
      "0.707106781186547 - 0.707106781186548*I"
    ],
    [
      "0.923879532511287 + 0.382683432365090*I",
      "0.707106781186547 - 0.707106781186548*I"
    ],
    [
      "0.707106781186548 + 0.707106781186547*I",
      "0.707106781186547 - 0.707106781186548*I"
    ],
    [
      "0.382683432365090 + 0.923879532511287*I",
      "0.707106781186547 - 0.707106781186548*I"
    ],
    [
      "6.12323399573677e-17 + 1.00000000000000*I",
      "0.707106781186547 - 0.707106781186548*I"
    ],
    [
      "-0.382683432365090 + 0.923879532511287*I",
      "0.707106781186547 - 0.707106781186548*I"
    ],
    [
      "-0.707106781186547 + 0.707106781186548*I",
      "0.707106781186547 - 0.707106781186548*I"
    ],
    [
      "-0.923879532511287 + 0.382683432365090*I",
      "0.707106781186547 - 0.707106781186548*I"
    ],
    [
      "-1.00000000000000 + 1.22464679914735e-16*I",
      "0.707106781186547 - 0.707106781186548*I"
    ],
    [
      "-0.923879532511287 - 0.382683432365090*I",
      "0.707106781186547 - 0.707106781186548*I"
    ],
    [
      "-0.707106781186548 - 0.707106781186547*I",
      "0.707106781186547 - 0.707106781186548*I"
    ],
    [
      "-0.382683432365090 - 0.923879532511287*I",
      "0.707106781186547 - 0.707106781186548*I"
    ],
    [
      "-1.83697019872103e-16 - 1.00000000000000*I",
      "0.707106781186547 - 0.707106781186548*I"
    ],
    [
      "0.382683432365090 - 0.923879532511287*I",
      "0.707106781186547 - 0.707106781186548*I"
    ],
    [
      "0.707106781186547 - 0.707106781186548*I",
      "0.707106781186547 - 0.707106781186548*I"
    ],
    [
      "0.923879532511287 - 0.382683432365090*I",
      "0.707106781186547 - 0.707106781186548*I"
    ],
    [
      "1.00000000000000",
      "0.923879532511287 - 0.382683432365090*I"
    ],
    [
      "0.923879532511287 + 0.382683432365090*I",
      "0.923879532511287 - 0.382683432365090*I"
    ],
    [
      "0.707106781186548 + 0.707106781186547*I",
      "0.923879532511287 - 0.382683432365090*I"
    ],
    [
      "0.382683432365090 + 0.923879532511287*I",
      "0.923879532511287 - 0.382683432365090*I"
    ],
    [
      "6.12323399573677e-17 + 1.00000000000000*I",
      "0.923879532511287 - 0.382683432365090*I"
    ],
    [
      "-0.382683432365090 + 0.923879532511287*I",
      "0.923879532511287 - 0.382683432365090*I"
    ],
    [
      "-0.707106781186547 + 0.707106781186548*I",
      "0.923879532511287 - 0.382683432365090*I"
    ],
    [
      "-0.923879532511287 + 0.382683432365090*I",
      "0.923879532511287 - 0.382683432365090*I"
    ],
    [
      "-1.00000000000000 + 1.22464679914735e-16*I",
      "0.923879532511287 - 0.382683432365090*I"
    ],
    [
      "-0.923879532511287 - 0.382683432365090*I",
      "0.923879532511287 - 0.382683432365090*I"
    ],
    [
      "-0.707106781186548 - 0.707106781186547*I",
      "0.923879532511287 - 0.382683432365090*I"
    ],
    [
      "-0.382683432365090 - 0.923879532511287*I",
      "0.923879532511287 - 0.382683432365090*I"
    ],
    [
      "-1.83697019872103e-16 - 1.00000000000000*I",
      "0.923879532511287 - 0.382683432365090*I"
    ],
    [
      "0.382683432365090 - 0.923879532511287*I",
      "0.923879532511287 - 0.382683432365090*I"
    ],
    [
      "0.707106781186547 - 0.707106781186548*I",
      "0.923879532511287 - 0.382683432365090*I"
    ],
    [
      "0.923879532511287 - 0.382683432365090*I",
      "0.923879532511287 - 0.382683432365090*I"
    ]
  ]
}
