{
  "system": [
    "(0.161591753921133 - 0.0932218165014773*I)*t*x0^19 + t*x0^17*x1^2 + 2.00000000000000*t*x0^16*x1^3 + t*x0^14*x1^5 + (-11.0000000000000)*t*x0^13*x1^6 + (-8.00000000000000)*t*x0^12*x1^7 + 4.00000000000000*t*x0^11*x1^8 + (-215.000000000000)*t*x0^9*x1^10 + 3.00000000000000*t*x0^8*x1^11 + t*x0^7*x1^12 + 5.00000000000000*t*x0^5*x1^14 + (-2.00000000000000)*t*x0^4*x1^15 - t*x0^3*x1^16 + t*x0^18 + (-0.161591753921133 + 0.0932218165014773*I)*x0^19 + (-2.00000000000000)*t*x0^17*x1 + (-15.0000000000000)*t*x0^16*x1^2 + 2.00000000000000*t*x0^15*x1^3 + 4.00000000000000*t*x0^14*x1^4 - t*x0^13*x1^5 + (-2.00000000000000)*t*x0^12*x1^6 - t*x0^11*x1^7 + 5.00000000000000*t*x0^10*x1^8 + (-5.00000000000000)*t*x0^8*x1^10 + (-98.0000000000000)*t*x0^7*x1^11 + t*x0^6*x1^12 - t*x0^4*x1^14 + 261.000000000000*t*x0^3*x1^15 + (-2.00000000000000)*t*x0^2*x1^16 - t*x0*x1^17 + 5.00000000000000*t*x1^18 - t*x0^16*x1 + t*x0^15*x1^2 + 8.00000000000000*t*x0^14*x1^3 - t*x0^12*x1^5 + (-2.00000000000000)*t*x0^11*x1^6 + t*x0^10*x1^7 + (-2.00000000000000)*t*x0^9*x1^8 + t*x0^8*x1^9 + 6.00000000000000*t*x0^7*x1^10 + (-3.00000000000000)*t*x0^6*x1^11 + t*x0^5*x1^12 - t*x0^4*x1^13 + 9.00000000000000*t*x0*x1^16 - t*x1^17 + t*x0^16 + (-3.00000000000000)*t*x0^15*x1 - t*x0^13*x1^3 + 33.0000000000000*t*x0^11*x1^5 + t*x0^10*x1^6 + t*x0^9*x1^7 + 2.00000000000000*t*x0^7*x1^9 + (-2.00000000000000)*t*x0^6*x1^10 + t*x0^4*x1^12 - t*x0^3*x1^13 + t*x0^2*x1^14 + 6.00000000000000*t*x0*x1^15 + t*x1^16 + (-4.00000000000000)*t*x0^14*x1 + (-12.0000000000000)*t*x0^13*x1^2 + (-2.00000000000000)*t*x0^12*x1^3 - t*x0^11*x1^4 + (-15.0000000000000)*t*x0^10*x1^5 + 5.00000000000000*t*x0^9*x1^6 + t*x0^8*x1^7 + (-2.00000000000000)*t*x0^6*x1^9 + (-2.00000000000000)*t*x0^5*x1^10 + 2.00000000000000*t*x0^4*x1^11 + t*x0^2*x1^13 + t*x0*x1^14 + 4.00000000000000*t*x1^15 - t*x0^14 + (-3.00000000000000)*t*x0^13*x1 + (-5.00000000000000)*t*x0^12*x1^2 + (-66.0000000000000)*t*x0^10*x1^4 + (-8.00000000000000)*t*x0^9*x1^5 - t*x0^8*x1^6 + 2.00000000000000*t*x0^7*x1^7 - t*x0^6*x1^8 + 11.0000000000000*t*x0^5*x1^9 + (-3.00000000000000)*t*x0^4*x1^10 + t*x0^2*x1^12 + t*x1^14 + t*x0^12*x1 + t*x0^11*x1^2 + t*x0^10*x1^3 + t*x0^9*x1^4 + 6.00000000000000*t*x0^8*x1^5 + 11.0000000000000*t*x0^7*x1^6 + t*x0^6*x1^7 + (-4.00000000000000)*t*x0^4*x1^9 + t*x0^3*x1^10 - t*x0^2*x1^11 + 2.00000000000000*t*x0*x1^12 + (-3.00000000000000)*t*x1^13 + 3.00000000000000*t*x0^11*x1 + 7.00000000000000*t*x0^10*x1^2 + 2.00000000000000*t*x0^9*x1^3 + (-6.00000000000000)*t*x0^8*x1^4 + (-6.00000000000000)*t*x0^7*x1^5 + 2.00000000000000*t*x0^6*x1^6 - t*x0^5*x1^7 - t*x0^4*x1^8 - t*x0^3*x1^9 - t*x0^2*x1^10 - t*x0^11 - t*x0^10*x1 + (-2.00000000000000)*t*x0^9*x1^2 + (-4.00000000000000)*t*x0^8*x1^3 - t*x0^6*x1^5 + t*x0^5*x1^6 - t*x0^4*x1^7 + t*x0^2*x1^9 + (-9.00000000000000)*t*x0*x1^10 - t*x1^11 + t*x0^10 - t*x0^9*x1 + t*x0^8*x1^2 + (-12.0000000000000)*t*x0^7*x1^3 + 14.0000000000000*t*x0^6*x1^4 + t*x0^5*x1^5 + 8.00000000000000*t*x0^4*x1^6 + (-7.00000000000000)*t*x0^2*x1^8 + t*x0*x1^9 + 6.00000000000000*t*x1^10 + 2.00000000000000*t*x0^9 + (-2.00000000000000)*t*x0^7*x1^2 - t*x0^6*x1^3 - t*x0^5*x1^4 + 2.00000000000000*t*x0^4*x1^5 + 7.00000000000000*t*x0^3*x1^6 - t*x0^2*x1^7 + t*x0*x1^8 - t*x1^9 - t*x0^8 + 2.00000000000000*t*x0^6*x1^2 + 2.00000000000000*t*x0^5*x1^3 - t*x0^4*x1^4 + 5.00000000000000*t*x0^3*x1^5 - t*x0*x1^7 + (-4.00000000000000)*t*x1^8 - t*x0^7 + (-5.00000000000000)*t*x0^6*x1 + t*x0^5*x1^2 + t*x0^4*x1^3 + (-2.00000000000000)*t*x0^3*x1^4 - t*x0^2*x1^5 + 9.00000000000000*t*x1^7 + 19.0000000000000*t*x0^6 + t*x0^5*x1 - t*x0^4*x1^2 + 3.00000000000000*t*x0^3*x1^3 + 2.00000000000000*t*x0^2*x1^4 - t*x0*x1^5 - t*x0^5 + 2.00000000000000*t*x0^4*x1 + (-2.00000000000000)*t*x0^3*x1^2 + t*x0^2*x1^3 - t*x0*x1^4 + (-6.00000000000000)*t*x1^5 + t*x0^4 + t*x0^3*x1 + (-2.00000000000000)*t*x0^2*x1^2 - t*x0*x1^3 - t*x1^4 + (-3.00000000000000)*t*x0^3 + (-2.00000000000000)*t*x0*x1^2 + 4.00000000000000*t*x1^3 + (-8.00000000000000)*t*x0*x1 + t*x1^2 + (-6.00000000000000)*t*x0 + 5.00000000000000*t*x1 + (0.838408246078867 + 0.0932218165014773*I)*t + 0.161591753921133 - 0.0932218165014773*I",
    "-t*x0^18*x1 + t*x0^16*x1^3 + t*x0^15*x1^4 + t*x0^14*x1^5 - t*x0^13*x1^6 + 3.00000000000000*t*x0^11*x1^8 + (-3.00000000000000)*t*x0^10*x1^9 - t*x0^7*x1^12 + 53.0000000000000*t*x0^6*x1^13 + 12.0000000000000*t*x0^5*x1^14 - t*x0^4*x1^15 + 2.00000000000000*t*x0^2*x1^17 - t*x0*x1^18 + (-5.29834882578666 + 0.517487930308121*I)*t*x1^19 + 3.00000000000000*t*x0^17*x1 - t*x0^16*x1^2 + 2.00000000000000*t*x0^15*x1^3 + t*x0^13*x1^5 - t*x0^12*x1^6 + t*x0^11*x1^7 + (-5.00000000000000)*t*x0^10*x1^8 + (-5.00000000000000)*t*x0^9*x1^9 - t*x0^8*x1^10 + 24.0000000000000*t*x0^7*x1^11 - t*x0^6*x1^12 + 2.00000000000000*t*x0^4*x1^14 - t*x0^3*x1^15 + 6.00000000000000*t*x0^2*x1^16 - t*x0*x1^17 - t*x1^18 + (0.298348825786659 - 0.517487930308121*I)*x1^19 + (-4.00000000000000)*t*x0^17 + (-4.00000000000000)*t*x0^16*x1 + 2.00000000000000*t*x0^14*x1^3 + 3.00000000000000*t*x0^13*x1^4 + 2.00000000000000*t*x0^12*x1^5 - t*x0^11*x1^6 + t*x0^10*x1^7 + 3.00000000000000*t*x0^9*x1^8 - t*x0^8*x1^9 - t*x0^7*x1^10 - t*x0^6*x1^11 + (-3.00000000000000)*t*x0^4*x1^13 + t*x0^3*x1^14 + (-13.0000000000000)*t*x0^2*x1^15 + t*x0*x1^16 + t*x1^17 + t*x0^15*x1 + 9.00000000000000*t*x0^14*x1^2 - t*x0^13*x1^3 + t*x0^12*x1^4 + (-4.00000000000000)*t*x0^10*x1^6 + t*x0^9*x1^7 - t*x0^8*x1^8 - t*x0^7*x1^9 - t*x0^6*x1^10 + t*x0^5*x1^11 + t*x0^4*x1^12 + t*x0^3*x1^13 + (-13.0000000000000)*t*x0^2*x1^14 + 3.00000000000000*t*x0*x1^15 + t*x0^15 + (-3.00000000000000)*t*x0^14*x1 + t*x0^13*x1^2 + (-2.00000000000000)*t*x0^12*x1^3 - t*x0^10*x1^5 + 2.00000000000000*t*x0^9*x1^6 + (-2.00000000000000)*t*x0^8*x1^7 + t*x0^7*x1^8 + 11.0000000000000*t*x0^6*x1^9 + 2.00000000000000*t*x0^5*x1^10 + t*x0^4*x1^11 + t*x0^3*x1^12 + 18.0000000000000*t*x0^2*x1^13 + (-3.00000000000000)*t*x0*x1^14 + (-2.00000000000000)*t*x1^15 + (-3.00000000000000)*t*x0^14 + 7.00000000000000*t*x0^13*x1 + 2.00000000000000*t*x0^12*x1^2 + (-7.00000000000000)*t*x0^11*x1^3 + 2.00000000000000*t*x0^10*x1^4 + t*x0^9*x1^5 - t*x0^8*x1^6 + (-4.00000000000000)*t*x0^7*x1^7 + (-3.00000000000000)*t*x0^6*x1^8 + (-90.0000000000000)*t*x0^5*x1^9 + t*x0^4*x1^10 + 3.00000000000000*t*x0^3*x1^11 + 10.0000000000000*t*x0^2*x1^12 + t*x0*x1^13 - t*x1^14 + t*x0^13 + (-7.00000000000000)*t*x0^11*x1^2 + 5.00000000000000*t*x0^10*x1^3 + 9.00000000000000*t*x0^9*x1^4 - t*x0^8*x1^5 + (-2.00000000000000)*t*x0^6*x1^7 - t*x0^5*x1^8 + t*x0^4*x1^9 + 6.00000000000000*t*x0^3*x1^10 + 5.00000000000000*t*x0^2*x1^11 + (-9.00000000000000)*t*x0*x1^12 - t*x0^12 - t*x0^11*x1 + 3.00000000000000*t*x0^9*x1^3 + (-4.00000000000000)*t*x0^8*x1^4 + (-9.00000000000000)*t*x0^6*x1^6 - t*x0^5*x1^7 + (-2.00000000000000)*t*x0^4*x1^8 - t*x0^3*x1^9 + 60.0000000000000*t*x0^2*x1^10 + 83.0000000000000*t*x0*x1^11 + 3.00000000000000*t*x1^12 + (-372.000000000000)*t*x0^10*x1 - t*x0^9*x1^2 - t*x0^8*x1^3 + (-5.00000000000000)*t*x0^5*x1^6 + (-2.00000000000000)*t*x0^4*x1^7 + 3.00000000000000*t*x0^3*x1^8 - t*x0^2*x1^9 + 2.00000000000000*t*x0*x1^10 - t*x1^11 + (-3.00000000000000)*t*x0^10 + (-6.00000000000000)*t*x0^9*x1 - t*x0^8*x1^2 + (-2.00000000000000)*t*x0^6*x1^4 + (-2.00000000000000)*t*x0^5*x1^5 + 2.00000000000000*t*x0^4*x1^6 - t*x0^3*x1^7 - t*x0^2*x1^8 + 4.00000000000000*t*x0*x1^9 - t*x1^10 + (-67.0000000000000)*t*x0^9 + 5.00000000000000*t*x0^8*x1 - t*x0^7*x1^2 + 3.00000000000000*t*x0^6*x1^3 + t*x0^5*x1^4 + (-2.00000000000000)*t*x0^4*x1^5 + 3.00000000000000*t*x0^3*x1^6 + (-9.00000000000000)*t*x0^2*x1^7 - t*x0*x1^8 + (-28.0000000000000)*t*x1^9 + (-12.0000000000000)*t*x0^7*x1 + 4.00000000000000*t*x0^6*x1^2 + t*x0^5*x1^3 + 2.00000000000000*t*x0^4*x1^4 - t*x0^3*x1^5 + (-5.00000000000000)*t*x0*x1^7 + 9.00000000000000*t*x1^8 - t*x0^7 + (-203.000000000000)*t*x0^6*x1 + 2.00000000000000*t*x0^5*x1^2 + (-3.00000000000000)*t*x0^4*x1^3 + t*x0^3*x1^4 + (-7.00000000000000)*t*x0^2*x1^5 - t*x0*x1^6 + t*x1^7 + (-9.00000000000000)*t*x0^6 + (-3.00000000000000)*t*x0^5*x1 + 2.00000000000000*t*x0^4*x1^2 + t*x0*x1^5 + (-2.00000000000000)*t*x1^6 + t*x0^5 + (-57.0000000000000)*t*x0^3*x1^2 + t*x0^2*x1^3 + (-2.00000000000000)*t*x0*x1^4 + t*x1^5 + t*x0^3*x1 + t*x0^2*x1^2 + t*x0*x1^3 + (-46.0000000000000)*t*x1^4 + (-9.00000000000000)*t*x0^2*x1 - t*x0*x1^2 + t*x1^3 - t*x0^2 + 21.0000000000000*t*x0*x1 + t*x0 + (1.29834882578666 - 0.517487930308121*I)*t - 0.298348825786659 + 0.517487930308121*I"
  ],
  "variables": [
    "x0",
    "x1"
  ],
  "parameters": [
    "t"
  ],
  "path": [
    [
      "0.0"
    ],
    [
      "1.0"
    ]
  ],
  "fiber": [
    [
      "1.00000000000000",
      "1.00000000000000"
    ],
    [
      "0.945817241700635 + 0.324699469204683*I",
      "1.00000000000000"
    ],
    [
      "0.789140509396394 + 0.614212712689668*I",
      "1.00000000000000"
    ],
    [
      "0.546948158122427 + 0.837166478262529*I",
      "1.00000000000000"
    ],
    [
      "0.245485487140799 + 0.969400265939330*I",
      "1.00000000000000"
    ],
    [
      "-0.0825793454723323 + 0.996584493006670*I",
      "1.00000000000000"
    ],
    [
      "-0.401695424652969 + 0.915773326655058*I",
      "1.00000000000000"
    ],
    [
      "-0.677281571625741 + 0.735723910673132*I",
      "1.00000000000000"
    ],
    [
      "-0.879473751206489 + 0.475947393037074*I",
      "1.00000000000000"
    ],
    [
      "-0.986361303402722 + 0.164594590280734*I",
      "1.00000000000000"
    ],
    [
      "-0.986361303402722 - 0.164594590280734*I",
      "1.00000000000000"
    ],
    [
      "-0.879473751206489 - 0.475947393037074*I",
      "1.00000000000000"
    ],
    [
      "-0.677281571625741 - 0.735723910673131*I",
      "1.00000000000000"
    ],
    [
      "-0.401695424652970 - 0.915773326655057*I",
      "1.00000000000000"
    ],
    [
      "-0.0825793454723327 - 0.996584493006670*I",
      "1.00000000000000"
    ],
    [
      "0.245485487140799 - 0.969400265939330*I",
      "1.00000000000000"
    ],
    [
      "0.546948158122427 - 0.837166478262529*I",
      "1.00000000000000"
    ],
    [
      "0.789140509396393 - 0.614212712689669*I",
      "1.00000000000000"
    ],
    [
      "0.945817241700635 - 0.324699469204684*I",
      "1.00000000000000"
    ],
    [
      "1.00000000000000",
      "0.945817241700635 + 0.324699469204683*I"
    ],
    [
      "0.945817241700635 + 0.324699469204683*I",
      "0.945817241700635 + 0.324699469204683*I"
    ],
    [
      "0.789140509396394 + 0.614212712689668*I",
      "0.945817241700635 + 0.324699469204683*I"
    ],
    [
      "0.546948158122427 + 0.837166478262529*I",
      "0.945817241700635 + 0.324699469204683*I"
    ],
    [
      "0.245485487140799 + 0.969400265939330*I",
      "0.945817241700635 + 0.324699469204683*I"
    ],
    [
      "-0.0825793454723323 + 0.996584493006670*I",
      "0.945817241700635 + 0.324699469204683*I"
    ],
    [
      "-0.401695424652969 + 0.915773326655058*I",
      "0.945817241700635 + 0.324699469204683*I"
    ],
    [
      "-0.677281571625741 + 0.735723910673132*I",
      "0.945817241700635 + 0.324699469204683*I"
    ],
    [
      "-0.879473751206489 + 0.475947393037074*I",
      "0.945817241700635 + 0.324699469204683*I"
    ],
    [
      "-0.986361303402722 + 0.164594590280734*I",
      "0.945817241700635 + 0.324699469204683*I"
    ],
    [
      "-0.986361303402722 - 0.164594590280734*I",
      "0.945817241700635 + 0.324699469204683*I"
    ],
    [
      "-0.879473751206489 - 0.475947393037074*I",
      "0.945817241700635 + 0.324699469204683*I"
    ],
    [
      "-0.677281571625741 - 0.735723910673131*I",
      "0.945817241700635 + 0.324699469204683*I"
    ],
    [
      "-0.401695424652970 - 0.915773326655057*I",
      "0.945817241700635 + 0.324699469204683*I"
    ],
    [
      "-0.0825793454723327 - 0.996584493006670*I",
      "0.945817241700635 + 0.324699469204683*I"
    ],
    [
      "0.245485487140799 - 0.969400265939330*I",
      "0.945817241700635 + 0.324699469204683*I"
    ],
    [
      "0.546948158122427 - 0.837166478262529*I",
      "0.945817241700635 + 0.324699469204683*I"
    ],
    [
      "0.789140509396393 - 0.614212712689669*I",
      "0.945817241700635 + 0.324699469204683*I"
    ],
    [
      "0.945817241700635 - 0.324699469204684*I",
      "0.945817241700635 + 0.324699469204683*I"
    ],
    [
      "1.00000000000000",
      "0.789140509396394 + 0.614212712689668*I"
    ],
    [
      "0.945817241700635 + 0.324699469204683*I",
      "0.789140509396394 + 0.614212712689668*I"
    ],
    [
      "0.789140509396394 + 0.614212712689668*I",
      "0.789140509396394 + 0.614212712689668*I"
    ],
    [
      "0.546948158122427 + 0.837166478262529*I",
      "0.789140509396394 + 0.614212712689668*I"
    ],
    [
      "0.245485487140799 + 0.969400265939330*I",
      "0.789140509396394 + 0.614212712689668*I"
    ],
    [
      "-0.0825793454723323 + 0.996584493006670*I",
      "0.789140509396394 + 0.614212712689668*I"
    ],
    [
      "-0.401695424652969 + 0.915773326655058*I",
      "0.789140509396394 + 0.614212712689668*I"
    ],
    [
      "-0.677281571625741 + 0.735723910673132*I",
      "0.789140509396394 + 0.614212712689668*I"
    ],
    [
      "-0.879473751206489 + 0.475947393037074*I",
      "0.789140509396394 + 0.614212712689668*I"
    ],
    [
      "-0.986361303402722 + 0.164594590280734*I",
      "0.789140509396394 + 0.614212712689668*I"
    ],
    [
      "-0.986361303402722 - 0.164594590280734*I",
      "0.789140509396394 + 0.614212712689668*I"
    ],
    [
      "-0.879473751206489 - 0.475947393037074*I",
      "0.789140509396394 + 0.614212712689668*I"
    ],
    [
      "-0.677281571625741 - 0.735723910673131*I",
      "0.789140509396394 + 0.614212712689668*I"
    ],
    [
      "-0.401695424652970 - 0.915773326655057*I",
      "0.789140509396394 + 0.614212712689668*I"
    ],
    [
      "-0.0825793454723327 - 0.996584493006670*I",
      "0.789140509396394 + 0.614212712689668*I"
    ],
    [
      "0.245485487140799 - 0.969400265939330*I",
      "0.789140509396394 + 0.614212712689668*I"
    ],
    [
      "0.546948158122427 - 0.837166478262529*I",
      "0.789140509396394 + 0.614212712689668*I"
    ],
    [
      "0.789140509396393 - 0.614212712689669*I",
      "0.789140509396394 + 0.614212712689668*I"
    ],
    [
      "0.945817241700635 - 0.324699469204684*I",
      "0.789140509396394 + 0.614212712689668*I"
    ],
    [
      "1.00000000000000",
      "0.546948158122427 + 0.837166478262529*I"
    ],
    [
      "0.945817241700635 + 0.324699469204683*I",
      "0.546948158122427 + 0.837166478262529*I"
    ],
    [
      "0.789140509396394 + 0.614212712689668*I",
      "0.546948158122427 + 0.837166478262529*I"
    ],
    [
      "0.546948158122427 + 0.837166478262529*I",
      "0.546948158122427 + 0.837166478262529*I"
    ],
    [
      "0.245485487140799 + 0.969400265939330*I",
      "0.546948158122427 + 0.837166478262529*I"
    ],
    [
      "-0.0825793454723323 + 0.996584493006670*I",
      "0.546948158122427 + 0.837166478262529*I"
    ],
    [
      "-0.401695424652969 + 0.915773326655058*I",
      "0.546948158122427 + 0.837166478262529*I"
    ],
    [
      "-0.677281571625741 + 0.735723910673132*I",
      "0.546948158122427 + 0.837166478262529*I"
    ],
    [
      "-0.879473751206489 + 0.475947393037074*I",
      "0.546948158122427 + 0.837166478262529*I"
    ],
    [
      "-0.986361303402722 + 0.164594590280734*I",
      "0.546948158122427 + 0.837166478262529*I"
    ],
    [
      "-0.986361303402722 - 0.164594590280734*I",
      "0.546948158122427 + 0.837166478262529*I"
    ],
    [
      "-0.879473751206489 - 0.475947393037074*I",
      "0.546948158122427 + 0.837166478262529*I"
    ],
    [
      "-0.677281571625741 - 0.735723910673131*I",
      "0.546948158122427 + 0.837166478262529*I"
    ],
    [
      "-0.401695424652970 - 0.915773326655057*I",
      "0.546948158122427 + 0.837166478262529*I"
    ],
    [
      "-0.0825793454723327 - 0.996584493006670*I",
      "0.546948158122427 + 0.837166478262529*I"
    ],
    [
      "0.245485487140799 - 0.969400265939330*I",
      "0.546948158122427 + 0.837166478262529*I"
    ],
    [
      "0.546948158122427 - 0.837166478262529*I",
      "0.546948158122427 + 0.837166478262529*I"
    ],
    [
      "0.789140509396393 - 0.614212712689669*I",
      "0.546948158122427 + 0.837166478262529*I"
    ],
    [
      "0.945817241700635 - 0.324699469204684*I",
      "0.546948158122427 + 0.837166478262529*I"
    ],
    [
      "1.00000000000000",
      "0.245485487140799 + 0.969400265939330*I"
    ],
    [
      "0.945817241700635 + 0.324699469204683*I",
      "0.245485487140799 + 0.969400265939330*I"
    ],
    [
      "0.789140509396394 + 0.614212712689668*I",
      "0.245485487140799 + 0.969400265939330*I"
    ],
    [
      "0.546948158122427 + 0.837166478262529*I",
      "0.245485487140799 + 0.969400265939330*I"
    ],
    [
      "0.245485487140799 + 0.969400265939330*I",
      "0.245485487140799 + 0.969400265939330*I"
    ],
    [
      "-0.0825793454723323 + 0.996584493006670*I",
      "0.245485487140799 + 0.969400265939330*I"
    ],
    [
      "-0.401695424652969 + 0.915773326655058*I",
      "0.245485487140799 + 0.969400265939330*I"
    ],
    [
      "-0.677281571625741 + 0.735723910673132*I",
      "0.245485487140799 + 0.969400265939330*I"
    ],
    [
      "-0.879473751206489 + 0.475947393037074*I",
      "0.245485487140799 + 0.969400265939330*I"
    ],
    [
      "-0.986361303402722 + 0.164594590280734*I",
      "0.245485487140799 + 0.969400265939330*I"
    ],
    [
      "-0.986361303402722 - 0.164594590280734*I",
      "0.245485487140799 + 0.969400265939330*I"
    ],
    [
      "-0.879473751206489 - 0.475947393037074*I",
      "0.245485487140799 + 0.969400265939330*I"
    ],
    [
      "-0.677281571625741 - 0.735723910673131*I",
      "0.245485487140799 + 0.969400265939330*I"
    ],
    [
      "-0.401695424652970 - 0.915773326655057*I",
      "0.245485487140799 + 0.969400265939330*I"
    ],
    [
      "-0.0825793454723327 - 0.996584493006670*I",
      "0.245485487140799 + 0.969400265939330*I"
    ],
    [
      "0.245485487140799 - 0.969400265939330*I",
      "0.245485487140799 + 0.969400265939330*I"
    ],
    [
      "0.546948158122427 - 0.837166478262529*I",
      "0.245485487140799 + 0.969400265939330*I"
    ],
    [
      "0.789140509396393 - 0.614212712689669*I",
      "0.245485487140799 + 0.969400265939330*I"
    ],
    [
      "0.945817241700635 - 0.324699469204684*I",
      "0.245485487140799 + 0.969400265939330*I"
    ],
    [
      "1.00000000000000",
      "-0.0825793454723323 + 0.996584493006670*I"
    ],
    [
      "0.945817241700635 + 0.324699469204683*I",
      "-0.0825793454723323 + 0.996584493006670*I"
    ],
    [
      "0.789140509396394 + 0.614212712689668*I",
      "-0.0825793454723323 + 0.996584493006670*I"
    ],
    [
      "0.546948158122427 + 0.837166478262529*I",
      "-0.0825793454723323 + 0.996584493006670*I"
    ],
    [
      "0.245485487140799 + 0.969400265939330*I",
      "-0.0825793454723323 + 0.996584493006670*I"
    ],
    [
      "-0.0825793454723323 + 0.996584493006670*I",
      "-0.0825793454723323 + 0.996584493006670*I"
    ],
    [
      "-0.401695424652969 + 0.915773326655058*I",
      "-0.0825793454723323 + 0.996584493006670*I"
    ],
    [
      "-0.677281571625741 + 0.735723910673132*I",
      "-0.0825793454723323 + 0.996584493006670*I"
    ],
    [
      "-0.879473751206489 + 0.475947393037074*I",
      "-0.0825793454723323 + 0.996584493006670*I"
    ],
    [
      "-0.986361303402722 + 0.164594590280734*I",
      "-0.0825793454723323 + 0.996584493006670*I"
    ],
    [
      "-0.986361303402722 - 0.164594590280734*I",
      "-0.0825793454723323 + 0.996584493006670*I"
    ],
    [
      "-0.879473751206489 - 0.475947393037074*I",
      "-0.0825793454723323 + 0.996584493006670*I"
    ],
    [
      "-0.677281571625741 - 0.735723910673131*I",
      "-0.0825793454723323 + 0.996584493006670*I"
    ],
    [
      "-0.401695424652970 - 0.915773326655057*I",
      "-0.0825793454723323 + 0.996584493006670*I"
    ],
    [
      "-0.0825793454723327 - 0.996584493006670*I",
      "-0.0825793454723323 + 0.996584493006670*I"
    ],
    [
      "0.245485487140799 - 0.969400265939330*I",
      "-0.0825793454723323 + 0.996584493006670*I"
    ],
    [
      "0.546948158122427 - 0.837166478262529*I",
      "-0.0825793454723323 + 0.996584493006670*I"
    ],
    [
      "0.789140509396393 - 0.614212712689669*I",
      "-0.0825793454723323 + 0.996584493006670*I"
    ],
    [
      "0.945817241700635 - 0.324699469204684*I",
      "-0.0825793454723323 + 0.996584493006670*I"
    ],
    [
      "1.00000000000000",
      "-0.401695424652969 + 0.915773326655058*I"
    ],
    [
      "0.945817241700635 + 0.324699469204683*I",
      "-0.401695424652969 + 0.915773326655058*I"
    ],
    [
      "0.789140509396394 + 0.614212712689668*I",
      "-0.401695424652969 + 0.915773326655058*I"
    ],
    [
      "0.546948158122427 + 0.837166478262529*I",
      "-0.401695424652969 + 0.915773326655058*I"
    ],
    [
      "0.245485487140799 + 0.969400265939330*I",
      "-0.401695424652969 + 0.915773326655058*I"
    ],
    [
      "-0.0825793454723323 + 0.996584493006670*I",
      "-0.401695424652969 + 0.915773326655058*I"
    ],
    [
      "-0.401695424652969 + 0.915773326655058*I",
      "-0.401695424652969 + 0.915773326655058*I"
    ],
    [
      "-0.677281571625741 + 0.735723910673132*I",
      "-0.401695424652969 + 0.915773326655058*I"
    ],
    [
      "-0.879473751206489 + 0.475947393037074*I",
      "-0.401695424652969 + 0.915773326655058*I"
    ],
    [
      "-0.986361303402722 + 0.164594590280734*I",
      "-0.401695424652969 + 0.915773326655058*I"
    ],
    [
      "-0.986361303402722 - 0.164594590280734*I",
      "-0.401695424652969 + 0.915773326655058*I"
    ],
    [
      "-0.879473751206489 - 0.475947393037074*I",
      "-0.401695424652969 + 0.915773326655058*I"
    ],
    [
      "-0.677281571625741 - 0.735723910673131*I",
      "-0.401695424652969 + 0.915773326655058*I"
    ],
    [
      "-0.401695424652970 - 0.915773326655057*I",
      "-0.401695424652969 + 0.915773326655058*I"
    ],
    [
      "-0.0825793454723327 - 0.996584493006670*I",
      "-0.401695424652969 + 0.915773326655058*I"
    ],
    [
      "0.245485487140799 - 0.969400265939330*I",
      "-0.401695424652969 + 0.915773326655058*I"
    ],
    [
      "0.546948158122427 - 0.837166478262529*I",
      "-0.401695424652969 + 0.915773326655058*I"
    ],
    [
      "0.789140509396393 - 0.614212712689669*I",
      "-0.401695424652969 + 0.915773326655058*I"
    ],
    [
      "0.945817241700635 - 0.324699469204684*I",
      "-0.401695424652969 + 0.915773326655058*I"
    ],
    [
      "1.00000000000000",
      "-0.677281571625741 + 0.735723910673132*I"
    ],
    [
      "0.945817241700635 + 0.324699469204683*I",
      "-0.677281571625741 + 0.735723910673132*I"
    ],
    [
      "0.789140509396394 + 0.614212712689668*I",
      "-0.677281571625741 + 0.735723910673132*I"
    ],
    [
      "0.546948158122427 + 0.837166478262529*I",
      "-0.677281571625741 + 0.735723910673132*I"
    ],
    [
      "0.245485487140799 + 0.969400265939330*I",
      "-0.677281571625741 + 0.735723910673132*I"
    ],
    [
      "-0.0825793454723323 + 0.996584493006670*I",
      "-0.677281571625741 + 0.735723910673132*I"
    ],
    [
      "-0.401695424652969 + 0.915773326655058*I",
      "-0.677281571625741 + 0.735723910673132*I"
    ],
    [
      "-0.677281571625741 + 0.735723910673132*I",
      "-0.677281571625741 + 0.735723910673132*I"
    ],
    [
      "-0.879473751206489 + 0.475947393037074*I",
      "-0.677281571625741 + 0.735723910673132*I"
    ],
    [
      "-0.986361303402722 + 0.164594590280734*I",
      "-0.677281571625741 + 0.735723910673132*I"
    ],
    [
      "-0.986361303402722 - 0.164594590280734*I",
      "-0.677281571625741 + 0.735723910673132*I"
    ],
    [
      "-0.879473751206489 - 0.475947393037074*I",
      "-0.677281571625741 + 0.735723910673132*I"
    ],
    [
      "-0.677281571625741 - 0.735723910673131*I",
      "-0.677281571625741 + 0.735723910673132*I"
    ],
    [
      "-0.401695424652970 - 0.915773326655057*I",
      "-0.677281571625741 + 0.735723910673132*I"
    ],
    [
      "-0.0825793454723327 - 0.996584493006670*I",
      "-0.677281571625741 + 0.735723910673132*I"
    ],
    [
      "0.245485487140799 - 0.969400265939330*I",
      "-0.677281571625741 + 0.735723910673132*I"
    ],
    [
      "0.546948158122427 - 0.837166478262529*I",
      "-0.677281571625741 + 0.735723910673132*I"
    ],
    [
      "0.789140509396393 - 0.614212712689669*I",
      "-0.677281571625741 + 0.735723910673132*I"
    ],
    [
      "0.945817241700635 - 0.324699469204684*I",
      "-0.677281571625741 + 0.735723910673132*I"
    ],
    [
      "1.00000000000000",
      "-0.879473751206489 + 0.475947393037074*I"
    ],
    [
      "0.945817241700635 + 0.324699469204683*I",
      "-0.879473751206489 + 0.475947393037074*I"
    ],
    [
      "0.789140509396394 + 0.614212712689668*I",
      "-0.879473751206489 + 0.475947393037074*I"
    ],
    [
      "0.546948158122427 + 0.837166478262529*I",
      "-0.879473751206489 + 0.475947393037074*I"
    ],
    [
      "0.245485487140799 + 0.969400265939330*I",
      "-0.879473751206489 + 0.475947393037074*I"
    ],
    [
      "-0.0825793454723323 + 0.996584493006670*I",
      "-0.879473751206489 + 0.475947393037074*I"
    ],
    [
      "-0.401695424652969 + 0.915773326655058*I",
      "-0.879473751206489 + 0.475947393037074*I"
    ],
    [
      "-0.677281571625741 + 0.735723910673132*I",
      "-0.879473751206489 + 0.475947393037074*I"
    ],
    [
      "-0.879473751206489 + 0.475947393037074*I",
      "-0.879473751206489 + 0.475947393037074*I"
    ],
    [
      "-0.986361303402722 + 0.164594590280734*I",
      "-0.879473751206489 + 0.475947393037074*I"
    ],
    [
      "-0.986361303402722 - 0.164594590280734*I",
      "-0.879473751206489 + 0.475947393037074*I"
    ],
    [
      "-0.879473751206489 - 0.475947393037074*I",
      "-0.879473751206489 + 0.475947393037074*I"
    ],
    [
      "-0.677281571625741 - 0.735723910673131*I",
      "-0.879473751206489 + 0.475947393037074*I"
    ],
    [
      "-0.401695424652970 - 0.915773326655057*I",
      "-0.879473751206489 + 0.475947393037074*I"
    ],
    [
      "-0.0825793454723327 - 0.996584493006670*I",
      "-0.879473751206489 + 0.475947393037074*I"
    ],
    [
      "0.245485487140799 - 0.969400265939330*I",
      "-0.879473751206489 + 0.475947393037074*I"
    ],
    [
      "0.546948158122427 - 0.837166478262529*I",
      "-0.879473751206489 + 0.475947393037074*I"
    ],
    [
      "0.789140509396393 - 0.614212712689669*I",
      "-0.879473751206489 + 0.475947393037074*I"
    ],
    [
      "0.945817241700635 - 0.324699469204684*I",
      "-0.879473751206489 + 0.475947393037074*I"
    ],
    [
      "1.00000000000000",
      "-0.986361303402722 + 0.164594590280734*I"
    ],
    [
      "0.945817241700635 + 0.324699469204683*I",
      "-0.986361303402722 + 0.164594590280734*I"
    ],
    [
      "0.789140509396394 + 0.614212712689668*I",
      "-0.986361303402722 + 0.164594590280734*I"
    ],
    [
      "0.546948158122427 + 0.837166478262529*I",
      "-0.986361303402722 + 0.164594590280734*I"
    ],
    [
      "0.245485487140799 + 0.969400265939330*I",
      "-0.986361303402722 + 0.164594590280734*I"
    ],
    [
      "-0.0825793454723323 + 0.996584493006670*I",
      "-0.986361303402722 + 0.164594590280734*I"
    ],
    [
      "-0.401695424652969 + 0.915773326655058*I",
      "-0.986361303402722 + 0.164594590280734*I"
    ],
    [
      "-0.677281571625741 + 0.735723910673132*I",
      "-0.986361303402722 + 0.164594590280734*I"
    ],
    [
      "-0.879473751206489 + 0.475947393037074*I",
      "-0.986361303402722 + 0.164594590280734*I"
    ],
    [
      "-0.986361303402722 + 0.164594590280734*I",
      "-0.986361303402722 + 0.164594590280734*I"
    ],
    [
      "-0.986361303402722 - 0.164594590280734*I",
      "-0.986361303402722 + 0.164594590280734*I"
    ],
    [
      "-0.879473751206489 - 0.475947393037074*I",
      "-0.986361303402722 + 0.164594590280734*I"
    ],
    [
      "-0.677281571625741 - 0.735723910673131*I",
      "-0.986361303402722 + 0.164594590280734*I"
    ],
    [
      "-0.401695424652970 - 0.915773326655057*I",
      "-0.986361303402722 + 0.164594590280734*I"
    ],
    [
      "-0.0825793454723327 - 0.996584493006670*I",
      "-0.986361303402722 + 0.164594590280734*I"
    ],
    [
      "0.245485487140799 - 0.969400265939330*I",
      "-0.986361303402722 + 0.164594590280734*I"
    ],
    [
      "0.546948158122427 - 0.837166478262529*I",
      "-0.986361303402722 + 0.164594590280734*I"
    ],
    [
      "0.789140509396393 - 0.614212712689669*I",
      "-0.986361303402722 + 0.164594590280734*I"
    ],
    [
      "0.945817241700635 - 0.324699469204684*I",
      "-0.986361303402722 + 0.164594590280734*I"
    ],
    [
      "1.00000000000000",
      "-0.986361303402722 - 0.164594590280734*I"
    ],
    [
      "0.945817241700635 + 0.324699469204683*I",
      "-0.986361303402722 - 0.164594590280734*I"
    ],
    [
      "0.789140509396394 + 0.614212712689668*I",
      "-0.986361303402722 - 0.164594590280734*I"
    ],
    [
      "0.546948158122427 + 0.837166478262529*I",
      "-0.986361303402722 - 0.164594590280734*I"
    ],
    [
      "0.245485487140799 + 0.969400265939330*I",
      "-0.986361303402722 - 0.164594590280734*I"
    ],
    [
      "-0.0825793454723323 + 0.996584493006670*I",
      "-0.986361303402722 - 0.164594590280734*I"
    ],
    [
      "-0.401695424652969 + 0.915773326655058*I",
      "-0.986361303402722 - 0.164594590280734*I"
    ],
    [
      "-0.677281571625741 + 0.735723910673132*I",
      "-0.986361303402722 - 0.164594590280734*I"
    ],
    [
      "-0.879473751206489 + 0.475947393037074*I",
      "-0.986361303402722 - 0.164594590280734*I"
    ],
    [
      "-0.986361303402722 + 0.164594590280734*I",
      "-0.986361303402722 - 0.164594590280734*I"
    ],
    [
      "-0.986361303402722 - 0.164594590280734*I",
      "-0.986361303402722 - 0.164594590280734*I"
    ],
    [
      "-0.879473751206489 - 0.475947393037074*I",
      "-0.986361303402722 - 0.164594590280734*I"
    ],
    [
      "-0.677281571625741 - 0.735723910673131*I",
      "-0.986361303402722 - 0.164594590280734*I"
    ],
    [
      "-0.401695424652970 - 0.915773326655057*I",
      "-0.986361303402722 - 0.164594590280734*I"
    ],
    [
      "-0.0825793454723327 - 0.996584493006670*I",
      "-0.986361303402722 - 0.164594590280734*I"
    ],
    [
      "0.245485487140799 - 0.969400265939330*I",
      "-0.986361303402722 - 0.164594590280734*I"
    ],
    [
      "0.546948158122427 - 0.837166478262529*I",
      "-0.986361303402722 - 0.164594590280734*I"
    ],
    [
      "0.789140509396393 - 0.614212712689669*I",
      "-0.986361303402722 - 0.164594590280734*I"
    ],
    [
      "0.945817241700635 - 0.324699469204684*I",
      "-0.986361303402722 - 0.164594590280734*I"
    ],
    [
      "1.00000000000000",
      "-0.879473751206489 - 0.475947393037074*I"
    ],
    [
      "0.945817241700635 + 0.324699469204683*I",
      "-0.879473751206489 - 0.475947393037074*I"
    ],
    [
      "0.789140509396394 + 0.614212712689668*I",
      "-0.879473751206489 - 0.475947393037074*I"
    ],
    [
      "0.546948158122427 + 0.837166478262529*I",
      "-0.879473751206489 - 0.475947393037074*I"
    ],
    [
      "0.245485487140799 + 0.969400265939330*I",
      "-0.879473751206489 - 0.475947393037074*I"
    ],
    [
      "-0.0825793454723323 + 0.996584493006670*I",
      "-0.879473751206489 - 0.475947393037074*I"
    ],
    [
      "-0.401695424652969 + 0.915773326655058*I",
      "-0.879473751206489 - 0.475947393037074*I"
    ],
    [
      "-0.677281571625741 + 0.735723910673132*I",
      "-0.879473751206489 - 0.475947393037074*I"
    ],
    [
      "-0.879473751206489 + 0.475947393037074*I",
      "-0.879473751206489 - 0.475947393037074*I"
    ],
    [
      "-0.986361303402722 + 0.164594590280734*I",
      "-0.879473751206489 - 0.475947393037074*I"
    ],
    [
      "-0.986361303402722 - 0.164594590280734*I",
      "-0.879473751206489 - 0.475947393037074*I"
    ],
    [
      "-0.879473751206489 - 0.475947393037074*I",
      "-0.879473751206489 - 0.475947393037074*I"
    ],
    [
      "-0.677281571625741 - 0.735723910673131*I",
      "-0.879473751206489 - 0.475947393037074*I"
    ],
    [
      "-0.401695424652970 - 0.915773326655057*I",
      "-0.879473751206489 - 0.475947393037074*I"
    ],
    [
      "-0.0825793454723327 - 0.996584493006670*I",
      "-0.879473751206489 - 0.475947393037074*I"
    ],
    [
      "0.245485487140799 - 0.969400265939330*I",
      "-0.879473751206489 - 0.475947393037074*I"
    ],
    [
      "0.546948158122427 - 0.837166478262529*I",
      "-0.879473751206489 - 0.475947393037074*I"
    ],
    [
      "0.789140509396393 - 0.614212712689669*I",
      "-0.879473751206489 - 0.475947393037074*I"
    ],
    [
      "0.945817241700635 - 0.324699469204684*I",
      "-0.879473751206489 - 0.475947393037074*I"
    ],
    [
      "1.00000000000000",
      "-0.677281571625741 - 0.735723910673131*I"
    ],
    [
      "0.945817241700635 + 0.324699469204683*I",
      "-0.677281571625741 - 0.735723910673131*I"
    ],
    [
      "0.789140509396394 + 0.614212712689668*I",
      "-0.677281571625741 - 0.735723910673131*I"
    ],
    [
      "0.546948158122427 + 0.837166478262529*I",
      "-0.677281571625741 - 0.735723910673131*I"
    ],
    [
      "0.245485487140799 + 0.969400265939330*I",
      "-0.677281571625741 - 0.735723910673131*I"
    ],
    [
      "-0.0825793454723323 + 0.996584493006670*I",
      "-0.677281571625741 - 0.735723910673131*I"
    ],
    [
      "-0.401695424652969 + 0.915773326655058*I",
      "-0.677281571625741 - 0.735723910673131*I"
    ],
    [
      "-0.677281571625741 + 0.735723910673132*I",
      "-0.677281571625741 - 0.735723910673131*I"
    ],
    [
      "-0.879473751206489 + 0.475947393037074*I",
      "-0.677281571625741 - 0.735723910673131*I"
    ],
    [
      "-0.986361303402722 + 0.164594590280734*I",
      "-0.677281571625741 - 0.735723910673131*I"
    ],
    [
      "-0.986361303402722 - 0.164594590280734*I",
      "-0.677281571625741 - 0.735723910673131*I"
    ],
    [
      "-0.879473751206489 - 0.475947393037074*I",
      "-0.677281571625741 - 0.735723910673131*I"
    ],
    [
      "-0.677281571625741 - 0.735723910673131*I",
      "-0.677281571625741 - 0.735723910673131*I"
    ],
    [
      "-0.401695424652970 - 0.915773326655057*I",
      "-0.677281571625741 - 0.735723910673131*I"
    ],
    [
      "-0.0825793454723327 - 0.996584493006670*I",
      "-0.677281571625741 - 0.735723910673131*I"
    ],
    [
      "0.245485487140799 - 0.969400265939330*I",
      "-0.677281571625741 - 0.735723910673131*I"
    ],
    [
      "0.546948158122427 - 0.837166478262529*I",
      "-0.677281571625741 - 0.735723910673131*I"
    ],
    [
      "0.789140509396393 - 0.614212712689669*I",
      "-0.677281571625741 - 0.735723910673131*I"
    ],
    [
      "0.945817241700635 - 0.324699469204684*I",
      "-0.677281571625741 - 0.735723910673131*I"
    ],
    [
      "1.00000000000000",
      "-0.401695424652970 - 0.915773326655057*I"
    ],
    [
      "0.945817241700635 + 0.324699469204683*I",
      "-0.401695424652970 - 0.915773326655057*I"
    ],
    [
      "0.789140509396394 + 0.614212712689668*I",
      "-0.401695424652970 - 0.915773326655057*I"
    ],
    [
      "0.546948158122427 + 0.837166478262529*I",
      "-0.401695424652970 - 0.915773326655057*I"
    ],
    [
      "0.245485487140799 + 0.969400265939330*I",
      "-0.401695424652970 - 0.915773326655057*I"
    ],
    [
      "-0.0825793454723323 + 0.996584493006670*I",
      "-0.401695424652970 - 0.915773326655057*I"
    ],
    [
      "-0.401695424652969 + 0.915773326655058*I",
      "-0.401695424652970 - 0.915773326655057*I"
    ],
    [
      "-0.677281571625741 + 0.735723910673132*I",
      "-0.401695424652970 - 0.915773326655057*I"
    ],
    [
      "-0.879473751206489 + 0.475947393037074*I",
      "-0.401695424652970 - 0.915773326655057*I"
    ],
    [
      "-0.986361303402722 + 0.164594590280734*I",
      "-0.401695424652970 - 0.915773326655057*I"
    ],
    [
      "-0.986361303402722 - 0.164594590280734*I",
      "-0.401695424652970 - 0.915773326655057*I"
    ],
    [
      "-0.879473751206489 - 0.475947393037074*I",
      "-0.401695424652970 - 0.915773326655057*I"
    ],
    [
      "-0.677281571625741 - 0.735723910673131*I",
      "-0.401695424652970 - 0.915773326655057*I"
    ],
    [
      "-0.401695424652970 - 0.915773326655057*I",
      "-0.401695424652970 - 0.915773326655057*I"
    ],
    [
      "-0.0825793454723327 - 0.996584493006670*I",
      "-0.401695424652970 - 0.915773326655057*I"
    ],
    [
      "0.245485487140799 - 0.969400265939330*I",
      "-0.401695424652970 - 0.915773326655057*I"
    ],
    [
      "0.546948158122427 - 0.837166478262529*I",
      "-0.401695424652970 - 0.915773326655057*I"
    ],
    [
      "0.789140509396393 - 0.614212712689669*I",
      "-0.401695424652970 - 0.915773326655057*I"
    ],
    [
      "0.945817241700635 - 0.324699469204684*I",
      "-0.401695424652970 - 0.915773326655057*I"
    ],
    [
      "1.00000000000000",
      "-0.0825793454723327 - 0.996584493006670*I"
    ],
    [
      "0.945817241700635 + 0.324699469204683*I",
      "-0.0825793454723327 - 0.996584493006670*I"
    ],
    [
      "0.789140509396394 + 0.614212712689668*I",
      "-0.0825793454723327 - 0.996584493006670*I"
    ],
    [
      "0.546948158122427 + 0.837166478262529*I",
      "-0.0825793454723327 - 0.996584493006670*I"
    ],
    [
      "0.245485487140799 + 0.969400265939330*I",
      "-0.0825793454723327 - 0.996584493006670*I"
    ],
    [
      "-0.0825793454723323 + 0.996584493006670*I",
      "-0.0825793454723327 - 0.996584493006670*I"
    ],
    [
      "-0.401695424652969 + 0.915773326655058*I",
      "-0.0825793454723327 - 0.996584493006670*I"
    ],
    [
      "-0.677281571625741 + 0.735723910673132*I",
      "-0.0825793454723327 - 0.996584493006670*I"
    ],
    [
      "-0.879473751206489 + 0.475947393037074*I",
      "-0.0825793454723327 - 0.996584493006670*I"
    ],
    [
      "-0.986361303402722 + 0.164594590280734*I",
      "-0.0825793454723327 - 0.996584493006670*I"
    ],
    [
      "-0.986361303402722 - 0.164594590280734*I",
      "-0.0825793454723327 - 0.996584493006670*I"
    ],
    [
      "-0.879473751206489 - 0.475947393037074*I",
      "-0.0825793454723327 - 0.996584493006670*I"
    ],
    [
      "-0.677281571625741 - 0.735723910673131*I",
      "-0.0825793454723327 - 0.996584493006670*I"
    ],
    [
      "-0.401695424652970 - 0.915773326655057*I",
      "-0.0825793454723327 - 0.996584493006670*I"
    ],
    [
      "-0.0825793454723327 - 0.996584493006670*I",
      "-0.0825793454723327 - 0.996584493006670*I"
    ],
    [
      "0.245485487140799 - 0.969400265939330*I",
      "-0.0825793454723327 - 0.996584493006670*I"
    ],
    [
      "0.546948158122427 - 0.837166478262529*I",
      "-0.0825793454723327 - 0.996584493006670*I"
    ],
    [
      "0.789140509396393 - 0.614212712689669*I",
      "-0.0825793454723327 - 0.996584493006670*I"
    ],
    [
      "0.945817241700635 - 0.324699469204684*I",
      "-0.0825793454723327 - 0.996584493006670*I"
    ],
    [
      "1.00000000000000",
      "0.245485487140799 - 0.969400265939330*I"
    ],
    [
      "0.945817241700635 + 0.324699469204683*I",
      "0.245485487140799 - 0.969400265939330*I"
    ],
    [
      "0.789140509396394 + 0.614212712689668*I",
      "0.245485487140799 - 0.969400265939330*I"
    ],
    [
      "0.546948158122427 + 0.837166478262529*I",
      "0.245485487140799 - 0.969400265939330*I"
    ],
    [
      "0.245485487140799 + 0.969400265939330*I",
      "0.245485487140799 - 0.969400265939330*I"
    ],
    [
      "-0.0825793454723323 + 0.996584493006670*I",
      "0.245485487140799 - 0.969400265939330*I"
    ],
    [
      "-0.401695424652969 + 0.915773326655058*I",
      "0.245485487140799 - 0.969400265939330*I"
    ],
    [
      "-0.677281571625741 + 0.735723910673132*I",
      "0.245485487140799 - 0.969400265939330*I"
    ],
    [
      "-0.879473751206489 + 0.475947393037074*I",
      "0.245485487140799 - 0.969400265939330*I"
    ],
    [
      "-0.986361303402722 + 0.164594590280734*I",
      "0.245485487140799 - 0.969400265939330*I"
    ],
    [
      "-0.986361303402722 - 0.164594590280734*I",
      "0.245485487140799 - 0.969400265939330*I"
    ],
    [
      "-0.879473751206489 - 0.475947393037074*I",
      "0.245485487140799 - 0.969400265939330*I"
    ],
    [
      "-0.677281571625741 - 0.735723910673131*I",
      "0.245485487140799 - 0.969400265939330*I"
    ],
    [
      "-0.401695424652970 - 0.915773326655057*I",
      "0.245485487140799 - 0.969400265939330*I"
    ],
    [
      "-0.0825793454723327 - 0.996584493006670*I",
      "0.245485487140799 - 0.969400265939330*I"
    ],
    [
      "0.245485487140799 - 0.969400265939330*I",
      "0.245485487140799 - 0.969400265939330*I"
    ],
    [
      "0.546948158122427 - 0.837166478262529*I",
      "0.245485487140799 - 0.969400265939330*I"
    ],
    [
      "0.789140509396393 - 0.614212712689669*I",
      "0.245485487140799 - 0.969400265939330*I"
    ],
    [
      "0.945817241700635 - 0.324699469204684*I",
      "0.245485487140799 - 0.969400265939330*I"
    ],
    [
      "1.00000000000000",
      "0.546948158122427 - 0.837166478262529*I"
    ],
    [
      "0.945817241700635 + 0.324699469204683*I",
      "0.546948158122427 - 0.837166478262529*I"
    ],
    [
      "0.789140509396394 + 0.614212712689668*I",
      "0.546948158122427 - 0.837166478262529*I"
    ],
    [
      "0.546948158122427 + 0.837166478262529*I",
      "0.546948158122427 - 0.837166478262529*I"
    ],
    [
      "0.245485487140799 + 0.969400265939330*I",
      "0.546948158122427 - 0.837166478262529*I"
    ],
    [
      "-0.0825793454723323 + 0.996584493006670*I",
      "0.546948158122427 - 0.837166478262529*I"
    ],
    [
      "-0.401695424652969 + 0.915773326655058*I",
      "0.546948158122427 - 0.837166478262529*I"
    ],
    [
      "-0.677281571625741 + 0.735723910673132*I",
      "0.546948158122427 - 0.837166478262529*I"
    ],
    [
      "-0.879473751206489 + 0.475947393037074*I",
      "0.546948158122427 - 0.837166478262529*I"
    ],
    [
      "-0.986361303402722 + 0.164594590280734*I",
      "0.546948158122427 - 0.837166478262529*I"
    ],
    [
      "-0.986361303402722 - 0.164594590280734*I",
      "0.546948158122427 - 0.837166478262529*I"
    ],
    [
      "-0.879473751206489 - 0.475947393037074*I",
      "0.546948158122427 - 0.837166478262529*I"
    ],
    [
      "-0.677281571625741 - 0.735723910673131*I",
      "0.546948158122427 - 0.837166478262529*I"
    ],
    [
      "-0.401695424652970 - 0.915773326655057*I",
      "0.546948158122427 - 0.837166478262529*I"
    ],
    [
      "-0.0825793454723327 - 0.996584493006670*I",
      "0.546948158122427 - 0.837166478262529*I"
    ],
    [
      "0.245485487140799 - 0.969400265939330*I",
      "0.546948158122427 - 0.837166478262529*I"
    ],
    [
      "0.546948158122427 - 0.837166478262529*I",
      "0.546948158122427 - 0.837166478262529*I"
    ],
    [
      "0.789140509396393 - 0.614212712689669*I",
      "0.546948158122427 - 0.837166478262529*I"
    ],
    [
      "0.945817241700635 - 0.324699469204684*I",
      "0.546948158122427 - 0.837166478262529*I"
    ],
    [
      "1.00000000000000",
      "0.789140509396393 - 0.614212712689669*I"
    ],
    [
      "0.945817241700635 + 0.324699469204683*I",
      "0.789140509396393 - 0.614212712689669*I"
    ],
    [
      "0.789140509396394 + 0.614212712689668*I",
      "0.789140509396393 - 0.614212712689669*I"
    ],
    [
      "0.546948158122427 + 0.837166478262529*I",
      "0.789140509396393 - 0.614212712689669*I"
    ],
    [
      "0.245485487140799 + 0.969400265939330*I",
      "0.789140509396393 - 0.614212712689669*I"
    ],
    [
      "-0.0825793454723323 + 0.996584493006670*I",
      "0.789140509396393 - 0.614212712689669*I"
    ],
    [
      "-0.401695424652969 + 0.915773326655058*I",
      "0.789140509396393 - 0.614212712689669*I"
    ],
    [
      "-0.677281571625741 + 0.735723910673132*I",
      "0.789140509396393 - 0.614212712689669*I"
    ],
    [
      "-0.879473751206489 + 0.475947393037074*I",
      "0.789140509396393 - 0.614212712689669*I"
    ],
    [
      "-0.986361303402722 + 0.164594590280734*I",
      "0.789140509396393 - 0.614212712689669*I"
    ],
    [
      "-0.986361303402722 - 0.164594590280734*I",
      "0.789140509396393 - 0.614212712689669*I"
    ],
    [
      "-0.879473751206489 - 0.475947393037074*I",
      "0.789140509396393 - 0.614212712689669*I"
    ],
    [
      "-0.677281571625741 - 0.735723910673131*I",
      "0.789140509396393 - 0.614212712689669*I"
    ],
    [
      "-0.401695424652970 - 0.915773326655057*I",
      "0.789140509396393 - 0.614212712689669*I"
    ],
    [
      "-0.0825793454723327 - 0.996584493006670*I",
      "0.789140509396393 - 0.614212712689669*I"
    ],
    [
      "0.245485487140799 - 0.969400265939330*I",
      "0.789140509396393 - 0.614212712689669*I"
    ],
    [
      "0.546948158122427 - 0.837166478262529*I",
      "0.789140509396393 - 0.614212712689669*I"
    ],
    [
      "0.789140509396393 - 0.614212712689669*I",
      "0.789140509396393 - 0.614212712689669*I"
    ],
    [
      "0.945817241700635 - 0.324699469204684*I",
      "0.789140509396393 - 0.614212712689669*I"
    ],
    [
      "1.00000000000000",
      "0.945817241700635 - 0.324699469204684*I"
    ],
    [
      "0.945817241700635 + 0.324699469204683*I",
      "0.945817241700635 - 0.324699469204684*I"
    ],
    [
      "0.789140509396394 + 0.614212712689668*I",
      "0.945817241700635 - 0.324699469204684*I"
    ],
    [
      "0.546948158122427 + 0.837166478262529*I",
      "0.945817241700635 - 0.324699469204684*I"
    ],
    [
      "0.245485487140799 + 0.969400265939330*I",
      "0.945817241700635 - 0.324699469204684*I"
    ],
    [
      "-0.0825793454723323 + 0.996584493006670*I",
      "0.945817241700635 - 0.324699469204684*I"
    ],
    [
      "-0.401695424652969 + 0.915773326655058*I",
      "0.945817241700635 - 0.324699469204684*I"
    ],
    [
      "-0.677281571625741 + 0.735723910673132*I",
      "0.945817241700635 - 0.324699469204684*I"
    ],
    [
      "-0.879473751206489 + 0.475947393037074*I",
      "0.945817241700635 - 0.324699469204684*I"
    ],
    [
      "-0.986361303402722 + 0.164594590280734*I",
      "0.945817241700635 - 0.324699469204684*I"
    ],
    [
      "-0.986361303402722 - 0.164594590280734*I",
      "0.945817241700635 - 0.324699469204684*I"
    ],
    [
      "-0.879473751206489 - 0.475947393037074*I",
      "0.945817241700635 - 0.324699469204684*I"
    ],
    [
      "-0.677281571625741 - 0.735723910673131*I",
      "0.945817241700635 - 0.324699469204684*I"
    ],
    [
      "-0.401695424652970 - 0.915773326655057*I",
      "0.945817241700635 - 0.324699469204684*I"
    ],
    [
      "-0.0825793454723327 - 0.996584493006670*I",
      "0.945817241700635 - 0.324699469204684*I"
    ],
    [
      "0.245485487140799 - 0.969400265939330*I",
      "0.945817241700635 - 0.324699469204684*I"
    ],
    [
      "0.546948158122427 - 0.837166478262529*I",
      "0.945817241700635 - 0.324699469204684*I"
    ],
    [
      "0.789140509396393 - 0.614212712689669*I",
      "0.945817241700635 - 0.324699469204684*I"
    ],
    [
      "0.945817241700635 - 0.324699469204684*I",
      "0.945817241700635 - 0.324699469204684*I"
    ]
  ]
}
