{
  "system": [
    "(-2.31807497369830 - 0.530505658658740*I)*t*x0^2 + (-2.00000000000000)*t*x0*x1 + t*x1^2 + 3.00000000000000*t*x2^2 + (-0.681925026301700 + 0.530505658658740*I)*x0^2 + (-2.00000000000000)*t*x1 + t*x2 + (12.3180749736983 + 0.530505658658740*I)*t + 0.681925026301700 - 0.530505658658740*I",
    "-t*x0^2 - t*x0*x1 + (-1.76233065497970 + 0.968274409374499*I)*t*x1^2 + t*x0*x2 + t*x1*x2 + t*x2^2 - t*x0 - t*x1 + (0.762330654979697 - 0.968274409374499*I)*x1^2 + (-1.23766934502030 - 0.968274409374499*I)*t - 0.762330654979697 + 0.968274409374499*I",
    "9.00000000000000*t*x0^2 + 3.00000000000000*t*x0*x1 + t*x1^2 + 2.00000000000000*t*x0*x2 + (-1.39703087691285 - 0.140129897035372*I)*t*x2^2 - t*x0 + 3.00000000000000*t*x2 + (0.397030876912851 + 0.140129897035372*I)*x2^2 + (0.397030876912851 + 0.140129897035372*I)*t - 0.397030876912851 - 0.140129897035372*I"
  ],
  "variables": [
    "x0",
    "x1",
    "x2"
  ],
  "parameters": [
    "t"
  ],
  "path": [
    [
      "0.0"
    ],
    [
      "1.0"
    ]
  ],
  "fiber": [
    [
      "1.00000000000000",
      "1.00000000000000",
      "1.00000000000000"
    ],
    [
      "-1.00000000000000 + 1.22464679914735e-16*I",
      "1.00000000000000",
      "1.00000000000000"
    ],
    [
      "1.00000000000000",
      "-1.00000000000000 + 1.22464679914735e-16*I",
      "1.00000000000000"
    ],
    [
      "-1.00000000000000 + 1.22464679914735e-16*I",
      "-1.00000000000000 + 1.22464679914735e-16*I",
      "1.00000000000000"
    ],
    [
      "1.00000000000000",
      "1.00000000000000",
      "-1.00000000000000 + 1.22464679914735e-16*I"
    ],
    [
      "-1.00000000000000 + 1.22464679914735e-16*I",
      "1.00000000000000",
      "-1.00000000000000 + 1.22464679914735e-16*I"
    ],
    [
      "1.00000000000000",
      "-1.00000000000000 + 1.22464679914735e-16*I",
      "-1.00000000000000 + 1.22464679914735e-16*I"
    ],
    [
      "-1.00000000000000 + 1.22464679914735e-16*I",
      "-1.00000000000000 + 1.22464679914735e-16*I",
      "-1.00000000000000 + 1.22464679914735e-16*I"
    ]
  ]
}
