{
  "system": [
    "(-8.61668630198497 - 0.550031149024478*I)*t*x0^45 + t*x0^44 + (0.616686301984970 + 0.550031149024478*I)*x0^45 + t*x0^43 + (-3.00000000000000)*t*x0^42 + (-2.00000000000000)*t*x0^41 + t*x0^40 + t*x0^39 + (-23.0000000000000)*t*x0^38 + t*x0^37 - t*x0^35 + t*x0^34 + t*x0^33 + 2.00000000000000*t*x0^32 + t*x0^30 + 4.00000000000000*t*x0^29 + t*x0^26 + (-2.00000000000000)*t*x0^25 + 5.00000000000000*t*x0^23 - t*x0^22 - t*x0^21 + 3.00000000000000*t*x0^20 + 2.00000000000000*t*x0^19 - t*x0^18 + (-4.00000000000000)*t*x0^14 + (-3.00000000000000)*t*x0^13 + (-19.0000000000000)*t*x0^12 + (-7.00000000000000)*t*x0^11 + (-3.00000000000000)*t*x0^10 - t*x0^9 - t*x0^8 + 22.0000000000000*t*x0^7 + (-6.00000000000000)*t*x0^6 + t*x0^5 - t*x0^3 + 7.00000000000000*t*x0 + (0.616686301984970 + 0.550031149024478*I)*t - 0.616686301984970 - 0.550031149024478*I"
  ],
  "variables": [
    "x0"
  ],
  "parameters": [
    "t"
  ],
  "path": [
    [
      "0.0"
    ],
    [
      "1.0"
    ]
  ],
  "fiber": [
    [
      "1.00000000000000"
    ],
    [
      "0.990268068741570 + 0.139173100960065*I"
    ],
    [
      "0.961261695938319 + 0.275637355816999*I"
    ],
    [
      "0.913545457642601 + 0.406736643075800*I"
    ],
    [
      "0.848048096156426 + 0.529919264233205*I"
    ],
    [
      "0.766044443118978 + 0.642787609686539*I"
    ],
    [
      "0.669130606358858 + 0.743144825477394*I"
    ],
    [
      "0.559192903470747 + 0.829037572555042*I"
    ],
    [
      "0.438371146789077 + 0.898794046299167*I"
    ],
    [
      "0.309016994374947 + 0.951056516295154*I"
    ],
    [
      "0.173648177666930 + 0.984807753012208*I"
    ],
    [
      "0.0348994967025009 + 0.999390827019096*I"
    ],
    [
      "-0.104528463267653 + 0.994521895368273*I"
    ],
    [
      "-0.241921895599668 + 0.970295726275996*I"
    ],
    [
      "-0.374606593415912 + 0.927183854566787*I"
    ],
    [
      "-0.500000000000000 + 0.866025403784438*I"
    ],
    [
      "-0.615661475325658 + 0.788010753606722*I"
    ],
    [
      "-0.719339800338651 + 0.694658370458997*I"
    ],
    [
      "-0.809016994374947 + 0.587785252292473*I"
    ],
    [
      "-0.882947592858927 + 0.469471562785891*I"
    ],
    [
      "-0.939692620785908 + 0.342020143325668*I"
    ],
    [
      "-0.978147600733806 + 0.207911690817759*I"
    ],
    [
      "-0.997564050259824 + 0.0697564737441251*I"
    ],
    [
      "-0.997564050259824 - 0.0697564737441257*I"
    ],
    [
      "-0.978147600733806 - 0.207911690817759*I"
    ],
    [
      "-0.939692620785908 - 0.342020143325669*I"
    ],
    [
      "-0.882947592858927 - 0.469471562785891*I"
    ],
    [
      "-0.809016994374948 - 0.587785252292473*I"
    ],
    [
      "-0.719339800338651 - 0.694658370458997*I"
    ],
    [
      "-0.615661475325658 - 0.788010753606722*I"
    ],
    [
      "-0.500000000000000 - 0.866025403784439*I"
    ],
    [
      "-0.374606593415912 - 0.927183854566787*I"
    ],
    [
      "-0.241921895599668 - 0.970295726275996*I"
    ],
    [
      "-0.104528463267653 - 0.994521895368273*I"
    ],
    [
      "0.0348994967025004 - 0.999390827019096*I"
    ],
    [
      "0.173648177666930 - 0.984807753012208*I"
    ],
    [
      "0.309016994374947 - 0.951056516295154*I"
    ],
    [
      "0.438371146789077 - 0.898794046299167*I"
    ],
    [
      "0.559192903470747 - 0.829037572555042*I"
    ],
    [
      "0.669130606358858 - 0.743144825477394*I"
    ],
    [
      "0.766044443118978 - 0.642787609686539*I"
    ],
    [
      "0.848048096156426 - 0.529919264233205*I"
    ],
    [
      "0.913545457642601 - 0.406736643075800*I"
    ],
    [
      "0.961261695938319 - 0.275637355816999*I"
    ],
    [
      "0.990268068741570 - 0.139173100960065*I"
    ]
  ]
}
